27 기본 R 필드 가이드 – R for Data Science (2e)
…
그런 다음 paths의 요소를 반복하는 대신 seq_along()을 사용하여 paths의 각 요소에 대한 하나의 인덱스를 생성하여 인덱스를 반복합니다:

seq_along(paths)
#>  [1]  1  2  3  4  5  6  7  8  9 10 11 12

인덱스를 사용하는 것은 입력의 각 위치를 출력의 해당 위치와 연결할 수 있기 때문에 중요합니다:

for (i in seq_along(paths)) {
  files[[i]] <- readxl::read_excel(paths[[i]])
}

티블 리스트를 단일 티블로 결합하려면 do.call() + rbind()를 사용할 수 있습니다:

do.call(rbind, files)
#> # A tibble: 1,704 × 5
#>   country     continent lifeExp      pop gdpPercap
#>   <chr>       <chr>       <dbl>    <dbl>     <dbl>
#> 1 Afghanistan Asia         28.8  8425333      779.
#> 2 Albania     Europe       55.2  1282697     1601.
#> 3 Algeria     Africa       43.1  9279525     2449.
#> 4 Angola      Africa       30.0  4232095     3521.
#> 5 Argentina   Americas     62.5 17876956     5911.
#> 6 Australia   Oceania      69.1  8691212    10040.
#> # ℹ 1,698 more rows
…
