21 데이터베이스 – R for Data Science (2e)
…
실제 프로젝트에서 duckdb를 사용하는 경우 duckdb_read_csv() 및 duckdb_register_arrow()에 대해 배우는 것을 강력히 추천합니다. 이것들은 데이터를 먼저 R로 로드하지 않고도 duckdb로 직접 데이터를 빠르게 로드할 수 있는 강력하고 성능이 뛰어난 방법을 제공합니다. 또한 Section 26.4.1 에서 여러 파일을 데이터베이스로 로드하는 유용한 기술을 보여줄 것입니다.

21.3.3 DBI 기초

dbListTables()는 데이터베이스의 모든 테이블을 나열3하고 dbReadTable()은 테이블의 내용을 검색하는 등 몇 가지 다른 DBI 함수를 사용하여 데이터가 올바르게 로드되었는지 확인할 수 있습니다.

dbListTables(con)
#> [1] "diamonds" "mpg"

con |> 
  dbReadTable("diamonds") |> 
  as_tibble()
#> # A tibble: 53,940 × 10
#>   carat cut       color clarity depth table price     x     y     z
#>   <dbl> <fct>     <fct> <fct>   <dbl> <dbl> <int> <dbl> <dbl> <dbl>
#> 1  0.23 Ideal     E     SI2      61.5    55   326  3.95  3.98  2.43
#> 2  0.21 Premium   E     SI1      59.8    61   326  3.89  3.84  2.31
#> 3  0.23 Good      E     VS1      56.9    65   327  4.05  4.07  2.31
#> 4  0.29 Premium   I     VS2      62.4    58   334  4.2   4.23  2.63
#> 5  0.31 Good      J     SI2      63.3    58   335  4.34  4.35  2.75
#> 6  0.24 Very Good J     VVS2     62.8    57   336  3.94  3.96  2.48
#> # ℹ 53,934 more rows

dbReadTable()은 data.frame을 반환하므로 예쁘게 인쇄되도록 as_tibble()을 사용하여 티블로 변환합니다.

이미 SQL을 알고 있다면 dbGetQuery()를 사용하여 데이터베이스에서 쿼리를 실행한 결과를 얻을 수 있습니다:

sql <- "
  SELECT carat, cut, clarity, color, price 
  FROM diamonds 
  WHERE price > 15000
"
as_tibble(dbGetQuery(con, sql))
#> # A tibble: 1,655 × 5
#>   carat cut       clarity color price
#>   <dbl> <fct>     <fct>   <fct> <int>
#> 1  1.54 Premium   VS2     E     15002
#> 2  1.19 Ideal     VVS1    F     15005
#> 3  2.1  Premium   SI1     I     15007
#> 4  1.69 Ideal     SI1     D     15011
#> 5  1.5  Very Good VVS2    G     15013
#> 6  1.73 Very Good VS1     G     15014
#> # ℹ 1,649 more rows
…
show_query()라는 dplyr 함수로 생성된 SQL 코드를 볼 수 있습니다. dplyr을 알고 있다면 SQL을 배우는 좋은 방법입니다! dplyr 코드를 작성하고 dbplyr이 SQL로 변환하게 한 다음 두 언어가 어떻게 일치하는지 파악해 보세요.

big_diamonds_db |>
  show_query()
#> <SQL>
#> SELECT carat, cut, color, clarity, price
#> FROM diamonds
#> WHERE (price > 15000.0)

모든 데이터를 R로 다시 가져오려면 collect()를 호출합니다. 뒤에서 이것은 SQL을 생성하고 dbGetQuery()를 호출하여 데이터를 얻은 다음 결과를 티블로 변환합니다:

big_diamonds <- big_diamonds_db |> 
  collect()
big_diamonds
#> # A tibble: 1,655 × 5
#>   carat cut       color clarity price
#>   <dbl> <fct>     <fct> <fct>   <int>
#> 1  1.54 Premium   E     VS2     15002
#> 2  1.19 Ideal     F     VVS1    15005
#> 3  2.1  Premium   I     SI1     15007
#> 4  1.69 Ideal     D     SI1     15011
#> 5  1.5  Very Good G     VVS2    15013
#> 6  1.73 Very Good G     VS1     15014
#> # ℹ 1,649 more rows
…
