1 데이터 시각화 – R for Data Science (2e)
…
변수(variable) 는 측정할 수 있는 수량, 품질 또는 속성입니다.

값(value) 은 변수를 측정할 때의 상태입니다. 변수의 값은 측정할 때마다 달라질 수 있습니다.

관측값(observation) 은 유사한 조건에서 수행된 측정값의 집합입니다(보통 하나의 관측값에 있는 모든 측정은 동시에 동일한 대상에 대해 수행됩니다). 관측값은 여러 값을 포함하며, 각 값은 서로 다른 변수와 연관됩니다. 때때로 관측값을 데이터 포인트라고 부르기도 합니다.

표 형식 데이터(Tabular data) 는 각 값이 변수 및 관측값과 연관된 값들의 집합입니다. 각 값이 고유한 “셀”에 배치되고, 각 변수가 고유한 열에, 각 관측값이 고유한 행에 배치되면 표 형식 데이터는 깔끔(tidy) 합니다.

이 맥락에서 변수는 모든 펭귄의 속성을 나타내며, 관측값은 단일 펭귄의 모든 속성을 나타냅니다.

콘솔에 데이터 프레임의 이름을 입력하면 R이 그 내용의 미리보기를 출력합니다. 미리보기 상단에 tibble이라고 표시된 것을 주목하세요. tidyverse에서는 곧 더 자세히 배우게 될 티블(tibble) 이라는 특별한 데이터 프레임을 사용합니다.

penguins
#> # A tibble: 344 × 8
#>   species island    bill_length_mm bill_depth_mm flipper_length_mm
#>   <fct>   <fct>              <dbl>         <dbl>             <int>
#> 1 Adelie  Torgersen           39.1          18.7               181
#> 2 Adelie  Torgersen           39.5          17.4               186
#> 3 Adelie  Torgersen           40.3          18                 195
#> 4 Adelie  Torgersen           NA            NA                  NA
#> 5 Adelie  Torgersen           36.7          19.3               193
#> 6 Adelie  Torgersen           39.3          20.6               190
#> # ℹ 338 more rows
#> # ℹ 3 more variables: body_mass_g <int>, sex <fct>, year <int>
…
