3 데이터 변형 – R for Data Science (2e)
…
tidyverse를 로드할 때 출력되는 충돌 메시지에 주의하세요. 이 메시지는 dplyr이 기본(base) R의 일부 함수를 덮어쓴다고 알려줍니다. dplyr을 로드한 후 이러한 함수의 기본 버전을 사용하려면 전체 이름인 stats::filter()와 stats::lag()를 사용해야 합니다. 지금까지는 함수가 어떤 패키지에서 왔는지 거의 무시했는데, 대개는 중요하지 않기 때문입니다. 하지만 패키지를 알면 도움말을 찾고 관련 함수를 찾는 데 도움이 될 수 있으므로, 함수가 어떤 패키지에서 왔는지 정확히 해야 할 때는 R과 동일한 구문인 packagename::functionname()을 사용할 것입니다.

3.1.2 nycflights13

기본적인 dplyr 동사를 탐색하기 위해 nycflights13::flights를 사용할 것입니다. 이 데이터셋에는 2013년 뉴욕시에서 출발한 모든 336,776개의 항공편이 포함되어 있습니다. 데이터는 미국 교통통계국(Bureau of Transportation Statistics)에서 가져왔으며 ?flights에 문서화되어 있습니다.

flights
#> # A tibble: 336,776 × 19
#>    year month   day dep_time sched_dep_time dep_delay arr_time sched_arr_time
#>   <int> <int> <int>    <int>          <int>     <dbl>    <int>          <int>
#> 1  2013     1     1      517            515         2      830            819
#> 2  2013     1     1      533            529         4      850            830
#> 3  2013     1     1      542            540         2      923            850
#> 4  2013     1     1      544            545        -1     1004           1022
#> 5  2013     1     1      554            600        -6      812            837
#> 6  2013     1     1      554            558        -4      740            728
#> # ℹ 336,770 more rows
#> # ℹ 11 more variables: arr_delay <dbl>, carrier <chr>, flight <int>, …
…
dplyr의 동사는 작업 대상에 따라 행(rows), 열(columns), 그룹(groups), 테이블(tables) 의 네 그룹으로 구성됩니다. 다음 섹션에서는 행, 열, 그룹에 대한 가장 중요한 동사를 배울 것입니다. 그런 다음 Chapter 19 에서 테이블에서 작동하는 조인(join) 동사에 대해 다시 이야기할 것입니다. 시작해 봅시다!

3.2 행

데이터셋의 행에서 작동하는 가장 중요한 동사는 순서를 변경하지 않고 어떤 행이 존재하는지를 변경하는 filter()와 어떤 행이 존재하는지를 변경하지 않고 행의 순서를 변경하는 arrange()입니다. 두 함수 모두 행에만 영향을 미치며 열은 변경되지 않습니다. 또한 고유한 값을 가진 행을 찾는 distinct()에 대해서도 논의할 것입니다. arrange() 및 filter()와 달리 선택적으로 열을 수정할 수도 있습니다.

3.2.1 filter()

filter()를 사용하면 열의 값에 따라 행을 유지할 수 있습니다1. 첫 번째 인수는 데이터 프레임입니다. 두 번째 및 후속 인수는 행을 유지하기 위해 참이어야 하는 조건입니다. 예를 들어, 120분(2시간) 이상 늦게 출발한 모든 항공편을 찾을 수 있습니다:

flights |> 
  filter(dep_delay > 120)
#> # A tibble: 9,723 × 19
#>    year month   day dep_time sched_dep_time dep_delay arr_time sched_arr_time
#>   <int> <int> <int>    <int>          <int>     <dbl>    <int>          <int>
#> 1  2013     1     1      848           1835       853     1001           1950
#> 2  2013     1     1      957            733       144     1056            853
#> 3  2013     1     1     1114            900       134     1447           1222
#> 4  2013     1     1     1540           1338       122     2020           1825
#> 5  2013     1     1     1815           1325       290     2120           1542
#> 6  2013     1     1     1842           1422       260     1958           1535
#> # ℹ 9,717 more rows
#> # ℹ 11 more variables: arr_delay <dbl>, carrier <chr>, flight <int>, …

>(초과) 외에도 >=(이상), <(미만), <=(이하), ==(같음), !=(같지 않음)를 사용할 수 있습니다. 또한 & 또는 ,를 사용하여 “그리고(and)”(두 조건 모두 확인)를 나타내거나 |를 사용하여 “또는(or)”(둘 중 하나 확인)을 나타내어 조건을 결합할 수도 있습니다:

# 1월 1일에 출발한 항공편
flights |> 
  filter(month == 1 & day == 1)
#> # A tibble: 842 × 19
#>    year month   day dep_time sched_dep_time dep_delay arr_time sched_arr_time
#>   <int> <int> <int>    <int>          <int>     <dbl>    <int>          <int>
#> 1  2013     1     1      517            515         2      830            819
#> 2  2013     1     1      533            529         4      850            830
#> 3  2013     1     1      542            540         2      923            850
#> 4  2013     1     1      544            545        -1     1004           1022
#> 5  2013     1     1      554            600        -6      812            837
#> 6  2013     1     1      554            558        -4      740            728
#> # ℹ 836 more rows
#> # ℹ 11 more variables: arr_delay <dbl>, carrier <chr>, flight <int>, …

# 1월 또는 2월에 출발한 항공편
flights |> 
  filter(month == 1 | month == 2)
#> # A tibble: 51,955 × 19
#>    year month   day dep_time sched_dep_time dep_delay arr_time sched_arr_time
#>   <int> <int> <int>    <int>          <int>     <dbl>    <int>          <int>
#> 1  2013     1     1      517            515         2      830            819
#> 2  2013     1     1      533            529         4      850            830
#> 3  2013     1     1      542            540         2      923            850
#> 4  2013     1     1      544            545        -1     1004           1022
#> 5  2013     1     1      554            600        -6      812            837
#> 6  2013     1     1      554            558        -4      740            728
#> # ℹ 51,949 more rows
#> # ℹ 11 more variables: arr_delay <dbl>, carrier <chr>, flight <int>, …

|와 ==를 결합할 때 유용한 단축키가 있습니다: %in%. 변수가 오른쪽 값 중 하나와 같으면 행을 유지합니다:

# 1월 또는 2월에 출발한 항공편을 선택하는 더 짧은 방법
flights |> 
  filter(month %in% c(1, 2))
#> # A tibble: 51,955 × 19
#>    year month   day dep_time sched_dep_time dep_delay arr_time sched_arr_time
#>   <int> <int> <int>    <int>          <int>     <dbl>    <int>          <int>
#> 1  2013     1     1      517            515         2      830            819
#> 2  2013     1     1      533            529         4      850            830
#> 3  2013     1     1      542            540         2      923            850
#> 4  2013     1     1      544            545        -1     1004           1022
#> 5  2013     1     1      554            600        -6      812            837
#> 6  2013     1     1      554            558        -4      740            728
#> # ℹ 51,949 more rows
#> # ℹ 11 more variables: arr_delay <dbl>, carrier <chr>, flight <int>, …
…
또 다른 실수는 영어에서처럼 “또는(or)” 문장을 작성하는 것입니다:

flights |> 
  filter(month == 1 | 2)

이것은 오류를 발생시키지 않는다는 의미에서 “작동”하지만, |가 먼저 조건 month == 1을 확인한 다음 조건 2를 확인하는데, 이는 확인할 합리적인 조건이 아니므로 원하는 작업을 수행하지 않습니다. 여기서 무슨 일이 일어나고 있는지와 그 이유에 대해서는 Section 12.3.2 에서 더 자세히 배울 것입니다.

3.2.3 arrange()

arrange()는 열의 값을 기준으로 행의 순서를 변경합니다. 데이터 프레임과 정렬 기준으로 삼을 일련의 열 이름(또는 더 복잡한 표현식)을 취합니다. 둘 이상의 열 이름을 제공하면 추가 열 각각이 이전 열 값의 동점(ties)을 깨는 데 사용됩니다. 예를 들어, 다음 코드는 4개의 열에 걸쳐 있는 출발 시간을 기준으로 정렬합니다. 가장 빠른 연도를 먼저 얻은 다음, 같은 연도 내에서 가장 빠른 달 등을 얻습니다.

flights |> 
  arrange(year, month, day, dep_time)
#> # A tibble: 336,776 × 19
#>    year month   day dep_time sched_dep_time dep_delay arr_time sched_arr_time
#>   <int> <int> <int>    <int>          <int>     <dbl>    <int>          <int>
#> 1  2013     1     1      517            515         2      830            819
#> 2  2013     1     1      533            529         4      850            830
#> 3  2013     1     1      542            540         2      923            850
#> 4  2013     1     1      544            545        -1     1004           1022
#> 5  2013     1     1      554            600        -6      812            837
#> 6  2013     1     1      554            558        -4      740            728
#> # ℹ 336,770 more rows
#> # ℹ 11 more variables: arr_delay <dbl>, carrier <chr>, flight <int>, …

arrange() 내부의 열에 desc()를 사용하여 내림차순(큰 것부터 작은 것 순)으로 해당 열을 기준으로 데이터 프레임을 재정렬할 수 있습니다. 예를 들어, 이 코드는 가장 많이 지연된 항공편부터 가장 적게 지연된 항공편 순으로 정렬합니다:

flights |> 
  arrange(desc(dep_delay))
#> # A tibble: 336,776 × 19
#>    year month   day dep_time sched_dep_time dep_delay arr_time sched_arr_time
#>   <int> <int> <int>    <int>          <int>     <dbl>    <int>          <int>
#> 1  2013     1     9      641            900      1301     1242           1530
#> 2  2013     6    15     1432           1935      1137     1607           2120
#> 3  2013     1    10     1121           1635      1126     1239           1810
#> 4  2013     9    20     1139           1845      1014     1457           2210
#> 5  2013     7    22      845           1600      1005     1044           1815
#> 6  2013     4    10     1100           1900       960     1342           2211
#> # ℹ 336,770 more rows
#> # ℹ 11 more variables: arr_delay <dbl>, carrier <chr>, flight <int>, …

행의 수는 변경되지 않았습니다. 데이터를 정렬하기만 했고 필터링하지는 않았습니다.

3.2.4 distinct()

distinct()는 데이터셋에서 모든 고유한 행을 찾으므로 기술적으로는 주로 행에서 작동합니다. 그러나 대부분의 경우 일부 변수의 고유한 조합을 원할 것이므로 선택적으로 열 이름을 제공할 수도 있습니다:

# 중복 행이 있는 경우 제거
flights |> 
  distinct()
#> # A tibble: 336,776 × 19
#>    year month   day dep_time sched_dep_time dep_delay arr_time sched_arr_time
#>   <int> <int> <int>    <int>          <int>     <dbl>    <int>          <int>
#> 1  2013     1     1      517            515         2      830            819
#> 2  2013     1     1      533            529         4      850            830
#> 3  2013     1     1      542            540         2      923            850
#> 4  2013     1     1      544            545        -1     1004           1022
#> 5  2013     1     1      554            600        -6      812            837
#> 6  2013     1     1      554            558        -4      740            728
#> # ℹ 336,770 more rows
#> # ℹ 11 more variables: arr_delay <dbl>, carrier <chr>, flight <int>, …

# 모든 고유한 출발지 및 도착지 쌍 찾기
flights |> 
  distinct(origin, dest)
#> # A tibble: 224 × 2
#>   origin dest 
#>   <chr>  <chr>
#> 1 EWR    IAH  
#> 2 LGA    IAH  
#> 3 JFK    MIA  
#> 4 JFK    BQN  
#> 5 LGA    ATL  
#> 6 EWR    ORD  
#> # ℹ 218 more rows

또는 고유한 행을 필터링할 때 다른 열을 유지하려면 .keep_all = TRUE 옵션을 사용할 수 있습니다.

flights |> 
  distinct(origin, dest, .keep_all = TRUE)
#> # A tibble: 224 × 19
#>    year month   day dep_time sched_dep_time dep_delay arr_time sched_arr_time
#>   <int> <int> <int>    <int>          <int>     <dbl>    <int>          <int>
#> 1  2013     1     1      517            515         2      830            819
#> 2  2013     1     1      533            529         4      850            830
#> 3  2013     1     1      542            540         2      923            850
#> 4  2013     1     1      544            545        -1     1004           1022
#> 5  2013     1     1      554            600        -6      812            837
#> 6  2013     1     1      554            558        -4      740            728
#> # ℹ 218 more rows
#> # ℹ 11 more variables: arr_delay <dbl>, carrier <chr>, flight <int>, …

이 모든 고유한 항공편이 1월 1일인 것은 우연이 아닙니다. distinct()는 데이터셋에서 고유한 행의 첫 번째 발생을 찾고 나머지는 버리기 때문입니다.

대신 발생 횟수를 찾으려면 distinct()를 count()로 바꾸는 것이 좋습니다. sort = TRUE 인수를 사용하면 발생 횟수의 내림차순으로 정렬할 수 있습니다. count에 대해서는 Section 13.3 에서 더 자세히 배울 것입니다.

flights |>
  count(origin, dest, sort = TRUE)
#> # A tibble: 224 × 3
#>   origin dest      n
#>   <chr>  <chr> <int>
#> 1 JFK    LAX   11262
#> 2 LGA    ATL   10263
#> 3 LGA    ORD    8857
#> 4 JFK    SFO    8204
#> 5 LGA    CLT    6168
#> 6 EWR    ORD    6100
#> # ℹ 218 more rows
…
3.3 열

행을 변경하지 않고 열에 영향을 미치는 4가지 중요한 동사가 있습니다. mutate()는 기존 열에서 파생된 새 열을 생성하고, select()는 존재하는 열을 변경하고, rename()은 열의 이름을 변경하고, relocate()는 열의 위치를 변경합니다.

3.3.1 mutate()

mutate()의 역할은 기존 열에서 계산된 새 열을 추가하는 것입니다. 변형(transform) 장에서는 다양한 유형의 변수를 조작하는 데 사용할 수 있는 다양한 함수 세트를 배우게 될 것입니다. 지금은 지연된 항공편이 공중에서 얼마나 많은 시간을 만회했는지(gain)와 시간당 마일 단위의 속도(speed)를 계산할 수 있는 기본 대수학을 고수할 것입니다:

flights |> 
  mutate(
    gain = dep_delay - arr_delay,
    speed = distance / air_time * 60
  )
#> # A tibble: 336,776 × 21
#>    year month   day dep_time sched_dep_time dep_delay arr_time sched_arr_time
#>   <int> <int> <int>    <int>          <int>     <dbl>    <int>          <int>
#> 1  2013     1     1      517            515         2      830            819
#> 2  2013     1     1      533            529         4      850            830
#> 3  2013     1     1      542            540         2      923            850
#> 4  2013     1     1      544            545        -1     1004           1022
#> 5  2013     1     1      554            600        -6      812            837
#> 6  2013     1     1      554            558        -4      740            728
#> # ℹ 336,770 more rows
#> # ℹ 13 more variables: arr_delay <dbl>, carrier <chr>, flight <int>, …

기본적으로 mutate()는 데이터셋의 오른쪽에 새 열을 추가하므로 여기서 무슨 일이 일어나고 있는지 보기가 어렵습니다. 대신 .before 인수를 사용하여 변수를 왼쪽에 추가할 수 있습니다2:

flights |> 
  mutate(
    gain = dep_delay - arr_delay,
    speed = distance / air_time * 60,
    .before = 1
  )
#> # A tibble: 336,776 × 21
#>    gain speed  year month   day dep_time sched_dep_time dep_delay arr_time
#>   <dbl> <dbl> <int> <int> <int>    <int>          <int>     <dbl>    <int>
#> 1    -9  370.  2013     1     1      517            515         2      830
#> 2   -16  374.  2013     1     1      533            529         4      850
#> 3   -31  408.  2013     1     1      542            540         2      923
#> 4    17  517.  2013     1     1      544            545        -1     1004
#> 5    19  394.  2013     1     1      554            600        -6      812
#> 6   -16  288.  2013     1     1      554            558        -4      740
#> # ℹ 336,770 more rows
#> # ℹ 12 more variables: sched_arr_time <int>, arr_delay <dbl>, …
…
starts_with("abc"): “abc”로 시작하는 이름과 일치합니다.

ends_with("xyz"): “xyz”로 끝나는 이름과 일치합니다.

contains("ijk"): “ijk”를 포함하는 이름과 일치합니다.

num_range("x", 1:3): x1, x2, x3와 일치합니다.

자세한 내용은 ?select를 참조하세요. 정규 표현식(Chapter 15 의 주제)을 알고 나면 matches()를 사용하여 패턴과 일치하는 변수를 선택할 수도 있습니다.

select()할 때 =를 사용하여 변수의 이름을 바꿀 수 있습니다. 새 이름은 =의 왼쪽에 나타나고 이전 변수는 오른쪽에 나타납니다:

flights |> 
  select(tail_num = tailnum)
#> # A tibble: 336,776 × 1
#>   tail_num
#>   <chr>   
#> 1 N14228  
#> 2 N24211  
#> 3 N619AA  
#> 4 N804JB  
#> 5 N668DN  
#> 6 N39463  
#> # ℹ 336,770 more rows

3.3.3 rename()

기존 변수를 모두 유지하고 몇 가지 이름만 바꾸고 싶다면 select() 대신 rename()을 사용할 수 있습니다:

flights |> 
  rename(tail_num = tailnum)
#> # A tibble: 336,776 × 19
#>    year month   day dep_time sched_dep_time dep_delay arr_time sched_arr_time
#>   <int> <int> <int>    <int>          <int>     <dbl>    <int>          <int>
#> 1  2013     1     1      517            515         2      830            819
#> 2  2013     1     1      533            529         4      850            830
#> 3  2013     1     1      542            540         2      923            850
#> 4  2013     1     1      544            545        -1     1004           1022
#> 5  2013     1     1      554            600        -6      812            837
#> 6  2013     1     1      554            558        -4      740            728
#> # ℹ 336,770 more rows
#> # ℹ 11 more variables: arr_delay <dbl>, carrier <chr>, flight <int>, …

일관성 없이 명명된 열이 많아 모두 수동으로 수정하기 고통스럽다면 유용한 자동 정리를 제공하는 janitor::clean_names()를 확인해 보세요.

3.3.4 relocate()

변수를 이동하려면 relocate()를 사용하세요. 관련 변수를 함께 모으거나 중요한 변수를 앞으로 이동하고 싶을 수 있습니다. 기본적으로 relocate()는 변수를 앞으로 이동합니다:

flights |> 
  relocate(time_hour, air_time)
#> # A tibble: 336,776 × 19
#>   time_hour           air_time  year month   day dep_time sched_dep_time
#>   <dttm>                 <dbl> <int> <int> <int>    <int>          <int>
#> 1 2013-01-01 05:00:00      227  2013     1     1      517            515
#> 2 2013-01-01 05:00:00      227  2013     1     1      533            529
#> 3 2013-01-01 05:00:00      160  2013     1     1      542            540
#> 4 2013-01-01 05:00:00      183  2013     1     1      544            545
#> 5 2013-01-01 06:00:00      116  2013     1     1      554            600
#> 6 2013-01-01 05:00:00      150  2013     1     1      554            558
#> # ℹ 336,770 more rows
#> # ℹ 12 more variables: dep_delay <dbl>, arr_time <int>, …
…
3.4 파이프

위에서 파이프의 간단한 예를 보여주었지만, 진정한 힘은 여러 동사를 결합하기 시작할 때 나타납니다. 예를 들어, 휴스턴의 IAH 공항으로 가는 가장 빠른 항공편을 찾고 싶다고 상상해 보세요. filter(), mutate(), select(), arrange()를 결합해야 합니다:

flights |> 
  filter(dest == "IAH") |> 
  mutate(speed = distance / air_time * 60) |> 
  select(year:day, dep_time, carrier, flight, speed) |> 
  arrange(desc(speed))
#> # A tibble: 7,198 × 7
#>    year month   day dep_time carrier flight speed
#>   <int> <int> <int>    <int> <chr>    <int> <dbl>
#> 1  2013     7     9      707 UA         226  522.
#> 2  2013     8    27     1850 UA        1128  521.
#> 3  2013     8    28      902 UA        1711  519.
#> 4  2013     8    28     2122 UA        1022  519.
#> 5  2013     6    11     1628 UA        1178  515.
#> 6  2013     8    27     1017 UA         333  515.
#> # ℹ 7,192 more rows
…
간단한 경우 |>와 %>%는 동일하게 작동합니다. 그렇다면 왜 기본(base) 파이프를 권장할까요? 첫째, 기본 R의 일부이므로 tidyverse를 사용하지 않을 때도 항상 사용할 수 있습니다. 둘째, |>는 %>%보다 훨씬 간단합니다. 2014년에 %>%가 발명된 후 2021년 R 4.1.0에 |>가 포함되기까지의 시간 동안 우리는 파이프에 대해 더 잘 이해하게 되었습니다. 이를 통해 기본 구현에서 자주 사용되지 않고 덜 중요한 기능을 버릴 수 있었습니다.

3.5 그룹

지금까지 행과 열을 다루는 함수에 대해 배웠습니다. dplyr은 그룹으로 작업하는 기능을 추가하면 훨씬 더 강력해집니다. 이 섹션에서는 가장 중요한 함수인 group_by(), summarize() 및 슬라이스 함수 제품군에 초점을 맞출 것입니다.

3.5.1 group_by()

group_by()를 사용하여 데이터셋을 분석에 의미 있는 그룹으로 나누세요:

flights |> 
  group_by(month)
#> # A tibble: 336,776 × 19
#> # Groups:   month [12]
#>    year month   day dep_time sched_dep_time dep_delay arr_time sched_arr_time
#>   <int> <int> <int>    <int>          <int>     <dbl>    <int>          <int>
#> 1  2013     1     1      517            515         2      830            819
#> 2  2013     1     1      533            529         4      850            830
#> 3  2013     1     1      542            540         2      923            850
#> 4  2013     1     1      544            545        -1     1004           1022
#> 5  2013     1     1      554            600        -6      812            837
#> 6  2013     1     1      554            558        -4      740            728
#> # ℹ 336,770 more rows
#> # ℹ 11 more variables: arr_delay <dbl>, carrier <chr>, flight <int>, …

group_by()는 데이터를 변경하지 않지만, 출력을 자세히 살펴보면 출력이 월별로 “그룹화”되었음을 나타내는 것을 알 수 있습니다(Groups: month [12]). 즉, 후속 작업은 이제 “월별로” 작동합니다. group_by()는 이 그룹화된 기능(클래스라고 함)을 데이터 프레임에 추가하여 데이터에 적용되는 후속 동사의 동작을 변경합니다.

3.5.2 summarize()

가장 중요한 그룹화된 작업은 요약(summary)으로, 단일 요약 통계를 계산하는 데 사용되는 경우 데이터 프레임을 각 그룹에 대해 단일 행을 갖도록 축소합니다. dplyr에서 이 작업은 summarize()3에 의해 수행되며, 다음 예제는 월별 평균 출발 지연을 계산합니다:

flights |> 
  group_by(month) |> 
  summarize(
    avg_delay = mean(dep_delay)
  )
#> # A tibble: 12 × 2
#>   month avg_delay
#>   <int>     <dbl>
#> 1     1        NA
#> 2     2        NA
#> 3     3        NA
#> 4     4        NA
#> 5     5        NA
#> 6     6        NA
#> # ℹ 6 more rows

어라! 무언가 잘못되었고, 모든 결과가 R의 결측값 기호인 NA(“N-A”라고 발음)입니다. 이것은 관측된 일부 항공편의 지연 열에 누락된 데이터가 있기 때문에 발생했으며, 해당 값을 포함하여 평균을 계산했을 때 NA 결과가 나왔습니다. Chapter 18 에서 결측값에 대해 자세히 다시 다루겠지만, 지금은 mean() 함수에 na.rm 인수를 TRUE로 설정하여 모든 결측값을 무시하도록 지시할 것입니다:

flights |> 
  group_by(month) |> 
  summarize(
    avg_delay = mean(dep_delay, na.rm = TRUE)
  )
#> # A tibble: 12 × 2
#>   month avg_delay
#>   <int>     <dbl>
#> 1     1      10.0
#> 2     2      10.8
#> 3     3      13.2
#> 4     4      13.9
#> 5     5      13.0
#> 6     6      20.8
#> # ℹ 6 more rows

summarize()에 대한 단일 호출로 원하는 만큼의 요약을 생성할 수 있습니다. 다가오는 장에서 다양한 유용한 요약을 배우겠지만, 매우 유용한 요약 중 하나는 각 그룹의 행 수를 반환하는 n()입니다:

flights |> 
  group_by(month) |> 
  summarize(
    avg_delay = mean(dep_delay, na.rm = TRUE), 
    n = n()
  )
#> # A tibble: 12 × 3
#>   month avg_delay     n
#>   <int>     <dbl> <int>
#> 1     1      10.0 27004
#> 2     2      10.8 24951
#> 3     3      13.2 28834
#> 4     4      13.9 28330
#> 5     5      13.0 28796
#> 6     6      20.8 28243
#> # ℹ 6 more rows
…
