7 데이터 가져오기 – R for Data Science (2e)
…
7.4 여러 파일에서 데이터 읽기

때로는 데이터가 단일 파일에 포함되어 있는 대신 여러 파일로 나뉘어 있습니다. 예를 들어, 여러 달의 판매 데이터가 있고 각 달의 데이터가 별도 파일(01-sales.csv(1월), 02-sales.csv(2월), 03-sales.csv(3월))에 있을 수 있습니다. read_csv()를 사용하면 이 데이터를 한 번에 읽어서 단일 데이터 프레임에 서로 쌓을 수 있습니다.

sales_files <- c("data/01-sales.csv", "data/02-sales.csv", "data/03-sales.csv")
read_csv(sales_files, id = "file")
#> # A tibble: 19 × 6
#>   file              month    year brand  item     n
#>   <chr>             <chr>   <dbl> <dbl> <dbl> <dbl>
#> 1 data/01-sales.csv January  2019     1  1234     3
#> 2 data/01-sales.csv January  2019     1  8721     9
#> 3 data/01-sales.csv January  2019     1  1822     2
#> 4 data/01-sales.csv January  2019     2  3333     1
#> 5 data/01-sales.csv January  2019     2  2156     9
#> 6 data/01-sales.csv January  2019     2  3987     6
#> # ℹ 13 more rows
…
