5 데이터 정리 – R for Data Science (2e)
…
동일한 기본 데이터를 여러 가지 방식으로 표현할 수 있습니다. 아래 예제는 동일한 데이터를 세 가지 다른 방식으로 구성한 것을 보여줍니다. 각 데이터셋은 네 가지 변수인 국가(country), 연도(year), 인구(population), 결핵(TB) 사례(cases) 수에 대해 동일한 값을 보여주지만, 각 데이터셋은 값을 다른 방식으로 구성합니다.

table1
#> # A tibble: 6 × 4
#>   country      year  cases population
#>   <chr>       <dbl>  <dbl>      <dbl>
#> 1 Afghanistan  1999    745   19987071
#> 2 Afghanistan  2000   2666   20595360
#> 3 Brazil       1999  37737  172006362
#> 4 Brazil       2000  80488  174504898
#> 5 China        1999 212258 1272915272
#> 6 China        2000 213766 1280428583

table2
#> # A tibble: 12 × 4
#>   country      year type           count
#>   <chr>       <dbl> <chr>          <dbl>
#> 1 Afghanistan  1999 cases            745
#> 2 Afghanistan  1999 population  19987071
#> 3 Afghanistan  2000 cases           2666
#> 4 Afghanistan  2000 population  20595360
#> 5 Brazil       1999 cases          37737
#> 6 Brazil       1999 population 172006362
#> # ℹ 6 more rows
…
데이터는 종종 분석 이외의 목표를 용이하게 하기 위해 구성됩니다. 예를 들어, 분석이 아닌 데이터 입력을 쉽게 하기 위해 데이터가 구조화되는 것이 일반적입니다.

대부분의 사람들은 깔끔한 데이터의 원칙에 익숙하지 않으며, 데이터를 다루는 데 많은 시간을 보내지 않는 한 스스로 도출하기 어렵습니다.

즉, 대부분의 실제 분석에는 최소한 약간의 정리가 필요합니다. 근본적인 변수와 관측값이 무엇인지 파악하는 것으로 시작할 것입니다. 때로는 쉽지만, 다른 경우에는 데이터를 처음 생성한 사람들과 상의해야 할 수도 있습니다. 다음으로, 변수는 열에 있고 관측값은 행에 있는 깔끔한 형태로 데이터를 피벗(pivot) 합니다.

tidyr은 데이터를 피벗하기 위한 두 가지 함수인 pivot_longer()와 pivot_wider()를 제공합니다. 가장 일반적인 경우이기 때문에 pivot_longer()부터 시작하겠습니다. 몇 가지 예제를 살펴보겠습니다.

5.3.1 열 이름에 있는 데이터

billboard 데이터셋은 2000년 노래의 빌보드 순위를 기록합니다:

billboard
#> # A tibble: 317 × 79
#>   artist       track               date.entered   wk1   wk2   wk3   wk4   wk5
#>   <chr>        <chr>               <date>       <dbl> <dbl> <dbl> <dbl> <dbl>
#> 1 2 Pac        Baby Don't Cry (Ke… 2000-02-26      87    82    72    77    87
#> 2 2Ge+her      The Hardest Part O… 2000-09-02      91    87    92    NA    NA
#> 3 3 Doors Down Kryptonite          2000-04-08      81    70    68    67    66
#> 4 3 Doors Down Loser               2000-10-21      76    76    72    69    67
#> 5 504 Boyz     Wobble Wobble       2000-04-15      57    34    25    17    17
#> 6 98^0         Give Me Just One N… 2000-08-19      51    39    34    26    26
#> # ℹ 311 more rows
#> # ℹ 71 more variables: wk6 <dbl>, wk7 <dbl>, wk8 <dbl>, wk9 <dbl>, …

이 데이터셋에서 각 관측값은 노래입니다. 처음 세 열(artist, track, date.entered)은 노래를 설명하는 변수입니다. 그 다음에는 매주 노래의 순위를 설명하는 76개의 열(wk1-wk76)이 있습니다1. 여기서 열 이름은 하나의 변수(week)이고 셀 값은 다른 변수(rank)입니다.

이 데이터를 정리하기 위해 pivot_longer()를 사용할 것입니다:

billboard |> 
  pivot_longer(
    cols = starts_with("wk"), 
    names_to = "week", 
    values_to = "rank"
  )
#> # A tibble: 24,092 × 5
#>    artist track                   date.entered week   rank
#>    <chr>  <chr>                   <date>       <chr> <dbl>
#>  1 2 Pac  Baby Don't Cry (Keep... 2000-02-26   wk1      87
#>  2 2 Pac  Baby Don't Cry (Keep... 2000-02-26   wk2      82
#>  3 2 Pac  Baby Don't Cry (Keep... 2000-02-26   wk3      72
#>  4 2 Pac  Baby Don't Cry (Keep... 2000-02-26   wk4      77
#>  5 2 Pac  Baby Don't Cry (Keep... 2000-02-26   wk5      87
#>  6 2 Pac  Baby Don't Cry (Keep... 2000-02-26   wk6      94
#>  7 2 Pac  Baby Don't Cry (Keep... 2000-02-26   wk7      99
#>  8 2 Pac  Baby Don't Cry (Keep... 2000-02-26   wk8      NA
#>  9 2 Pac  Baby Don't Cry (Keep... 2000-02-26   wk9      NA
#> 10 2 Pac  Baby Don't Cry (Keep... 2000-02-26   wk10     NA
#> # ℹ 24,082 more rows
…
values_to는 셀 값에 저장된 변수의 이름을 지정하며, 우리는 그 변수의 이름을 rank라고 지었습니다.

코드에서 "week"와 "rank"는 인용부호로 묶여 있는데, 이는 우리가 생성하는 새 변수이며 pivot_longer() 호출을 실행할 때 데이터에 아직 존재하지 않기 때문입니다.

이제 결과로 나온 더 긴 데이터 프레임에 주의를 돌려봅시다. 노래가 76주 미만 동안 상위 100위 안에 있으면 어떻게 될까요? 2 Pac의 “Baby Don’t Cry”를 예로 들어보겠습니다. 위의 출력은 이 노래가 7주 동안만 상위 100위 안에 있었고 나머지 모든 주는 결측값으로 채워져 있음을 시사합니다. 이러한 NA는 실제로 알 수 없는 관측값을 나타내는 것이 아니라 데이터셋의 구조에 의해 강제로 존재하게 된 것이므로2, values_drop_na = TRUE를 설정하여 pivot_longer()에 제거하도록 요청할 수 있습니다:

billboard |> 
  pivot_longer(
    cols = starts_with("wk"), 
    names_to = "week", 
    values_to = "rank",
    values_drop_na = TRUE
  )
#> # A tibble: 5,307 × 5
#>   artist track                   date.entered week   rank
#>   <chr>  <chr>                   <date>       <chr> <dbl>
#> 1 2 Pac  Baby Don't Cry (Keep... 2000-02-26   wk1      87
#> 2 2 Pac  Baby Don't Cry (Keep... 2000-02-26   wk2      82
#> 3 2 Pac  Baby Don't Cry (Keep... 2000-02-26   wk3      72
#> 4 2 Pac  Baby Don't Cry (Keep... 2000-02-26   wk4      77
#> 5 2 Pac  Baby Don't Cry (Keep... 2000-02-26   wk5      87
#> 6 2 Pac  Baby Don't Cry (Keep... 2000-02-26   wk6      94
#> # ℹ 5,301 more rows
…
이 데이터는 이제 깔끔하지만, mutate()와 readr::parse_number()를 사용하여 week의 값을 문자열에서 숫자로 변환하면 향후 계산을 조금 더 쉽게 만들 수 있습니다. parse_number()는 다른 모든 텍스트를 무시하고 문자열에서 첫 번째 숫자를 추출하는 편리한 함수입니다.

billboard_longer <- billboard |> 
  pivot_longer(
    cols = starts_with("wk"), 
    names_to = "week", 
    values_to = "rank",
    values_drop_na = TRUE
  ) |> 
  mutate(
    week = parse_number(week)
  )
billboard_longer
#> # A tibble: 5,307 × 5
#>   artist track                   date.entered  week  rank
#>   <chr>  <chr>                   <date>       <dbl> <dbl>
#> 1 2 Pac  Baby Don't Cry (Keep... 2000-02-26       1    87
#> 2 2 Pac  Baby Don't Cry (Keep... 2000-02-26       2    82
#> 3 2 Pac  Baby Don't Cry (Keep... 2000-02-26       3    72
#> 4 2 Pac  Baby Don't Cry (Keep... 2000-02-26       4    77
#> 5 2 Pac  Baby Don't Cry (Keep... 2000-02-26       5    87
#> 6 2 Pac  Baby Don't Cry (Keep... 2000-02-26       6    94
#> # ℹ 5,301 more rows
…
Figure 5.5: 값의 수는 보존되지만(반복되지 않음) 행별로 풀립니다.

5.3.3 열 이름에 많은 변수가 있는 경우

열 이름에 여러 정보가 섞여 있어 이를 별도의 새 변수에 저장하고 싶을 때 더 어려운 상황이 발생합니다. 예를 들어 위에서 본 table1과 친구들의 소스인 who2 데이터셋을 가져와 보겠습니다:

who2
#> # A tibble: 7,240 × 58
#>   country      year sp_m_014 sp_m_1524 sp_m_2534 sp_m_3544 sp_m_4554
#>   <chr>       <dbl>    <dbl>     <dbl>     <dbl>     <dbl>     <dbl>
#> 1 Afghanistan  1980       NA        NA        NA        NA        NA
#> 2 Afghanistan  1981       NA        NA        NA        NA        NA
#> 3 Afghanistan  1982       NA        NA        NA        NA        NA
#> 4 Afghanistan  1983       NA        NA        NA        NA        NA
#> 5 Afghanistan  1984       NA        NA        NA        NA        NA
#> 6 Afghanistan  1985       NA        NA        NA        NA        NA
#> # ℹ 7,234 more rows
#> # ℹ 51 more variables: sp_m_5564 <dbl>, sp_m_65 <dbl>, sp_f_014 <dbl>, …

세계보건기구(WHO)에서 수집한 이 데이터셋은 결핵 진단에 대한 정보를 기록합니다. 이미 변수이고 해석하기 쉬운 두 개의 열 country와 year가 있습니다. 그 뒤에는 sp_m_014, ep_m_4554, rel_m_3544와 같은 56개의 열이 있습니다. 이 열들을 충분히 오래 쳐다보면 패턴이 있음을 알 수 있습니다. 각 열 이름은 _로 구분된 세 부분으로 구성됩니다. 첫 번째 부분인 sp/rel/ep는 진단에 사용된 방법을 설명하고, 두 번째 부분인 m/f는 성별(gender, 이 데이터셋에서는 이진 변수로 코딩됨)이며, 세 번째 부분인 014/1524/2534/3544/4554/5564/65는 나이(age) 범위(예: 014는 0-14세를 나타냄)입니다.

따라서 이 경우 who2에는 6가지 정보가 기록되어 있습니다: 국가와 연도(이미 열임), 진단 방법, 성별 범주, 연령대 범주(다른 열 이름에 포함됨), 해당 범주의 환자 수(셀 값). 이 6가지 정보를 6개의 별도 열로 구성하기 위해 names_to에 열 이름 벡터를 사용하고, 원래 변수 이름을 조각으로 나누기 위한 지시자로 names_sep을 사용하며, values_to에 열 이름을 사용하여 pivot_longer()를 씁니다:

who2 |> 
  pivot_longer(
    cols = !(country:year),
    names_to = c("diagnosis", "gender", "age"), 
    names_sep = "_",
    values_to = "count"
  )
#> # A tibble: 405,440 × 6
#>   country      year diagnosis gender age   count
#>   <chr>       <dbl> <chr>     <chr>  <chr> <dbl>
#> 1 Afghanistan  1980 sp        m      014      NA
#> 2 Afghanistan  1980 sp        m      1524     NA
#> 3 Afghanistan  1980 sp        m      2534     NA
#> 4 Afghanistan  1980 sp        m      3544     NA
#> 5 Afghanistan  1980 sp        m      4554     NA
#> 6 Afghanistan  1980 sp        m      5564     NA
#> # ℹ 405,434 more rows
…
이 데이터셋에는 최대 두 자녀의 이름과 생년월일이 있는 다섯 가족에 대한 데이터가 포함되어 있습니다. 이 데이터셋의 새로운 과제는 열 이름에 두 변수(dob, name)의 이름과 다른 변수(child, 값은 1 또는 2)의 값이 포함되어 있다는 것입니다. 이 문제를 해결하려면 다시 names_to에 벡터를 제공해야 하지만 이번에는 특수 ".value" 센티넬(sentinel)을 사용합니다. 이것은 변수의 이름이 아니라 pivot_longer()에 다른 작업을 수행하도록 지시하는 고유한 값입니다. 이는 일반적인 values_to 인수를 재정의하여 피벗된 열 이름의 첫 번째 구성 요소를 출력의 변수 이름으로 사용합니다.

household |> 
  pivot_longer(
    cols = !family, 
    names_to = c(".value", "child"), 
    names_sep = "_", 
    values_drop_na = TRUE
  )
#> # A tibble: 9 × 4
#>   family child  dob        name 
#>    <int> <chr>  <date>     <chr>
#> 1      1 child1 1998-11-26 Susan
#> 2      1 child2 2000-01-29 Jose 
#> 3      2 child1 1996-06-22 Mark 
#> 4      3 child1 2002-07-11 Sam  
#> 5      3 child2 2004-04-05 Seth 
#> 6      4 child1 2004-10-10 Craig
#> # ℹ 3 more rows
…
Figure 5.7: names_to = c(".value", "num")으로 피벗하면 열 이름이 두 구성 요소로 분할됩니다. 첫 번째 부분은 출력 열 이름(x 또는 y)을 결정하고 두 번째 부분은 num 열의 값을 결정합니다.

5.4 데이터 넓게 만들기

지금까지 값이 열 이름에 들어가 있는 일반적인 문제를 해결하기 위해 pivot_longer()를 사용했습니다. 다음으로 열을 늘리고 행을 줄여 데이터셋을 더 넓게 만들고 하나의 관측값이 여러 행에 걸쳐 있을 때 도움이 되는 pivot_wider()로 피벗(하하)해 보겠습니다. 이것은 야생에서 덜 흔하게 발생하는 것 같지만 정부 데이터를 다룰 때 많이 나타나는 것 같습니다.

환자 경험에 대한 데이터를 수집하는 메디케어 및 메디케이드 서비스 센터(Centers of Medicare and Medicaid services)의 데이터셋인 cms_patient_experience를 살펴보는 것으로 시작하겠습니다:

cms_patient_experience
#> # A tibble: 500 × 5
#>   org_pac_id org_nm                     measure_cd   measure_title   prf_rate
#>   <chr>      <chr>                      <chr>        <chr>              <dbl>
#> 1 0446157747 USC CARE MEDICAL GROUP INC CAHPS_GRP_1  CAHPS for MIPS…       63
#> 2 0446157747 USC CARE MEDICAL GROUP INC CAHPS_GRP_2  CAHPS for MIPS…       87
#> 3 0446157747 USC CARE MEDICAL GROUP INC CAHPS_GRP_3  CAHPS for MIPS…       86
#> 4 0446157747 USC CARE MEDICAL GROUP INC CAHPS_GRP_5  CAHPS for MIPS…       57
#> 5 0446157747 USC CARE MEDICAL GROUP INC CAHPS_GRP_8  CAHPS for MIPS…       85
#> 6 0446157747 USC CARE MEDICAL GROUP INC CAHPS_GRP_12 CAHPS for MIPS…       24
#> # ℹ 494 more rows
…
이 두 열 중 어느 것도 특별히 좋은 변수 이름이 되지 않습니다. measure_cd는 변수의 의미를 암시하지 않으며 measure_title은 공백이 포함된 긴 문장입니다. 지금은 measure_cd를 새 열 이름의 소스로 사용하겠지만, 실제 분석에서는 짧고 의미 있는 자체 변수 이름을 만들고 싶을 수 있습니다.

pivot_wider()는 pivot_longer()와 반대되는 인터페이스를 가지고 있습니다. 새 열 이름을 선택하는 대신 값(values_from)과 열 이름(names_from)을 정의하는 기존 열을 제공해야 합니다:

cms_patient_experience |> 
  pivot_wider(
    names_from = measure_cd,
    values_from = prf_rate
  )
#> # A tibble: 500 × 9
#>   org_pac_id org_nm                   measure_title   CAHPS_GRP_1 CAHPS_GRP_2
#>   <chr>      <chr>                    <chr>                 <dbl>       <dbl>
#> 1 0446157747 USC CARE MEDICAL GROUP … CAHPS for MIPS…          63          NA
#> 2 0446157747 USC CARE MEDICAL GROUP … CAHPS for MIPS…          NA          87
#> 3 0446157747 USC CARE MEDICAL GROUP … CAHPS for MIPS…          NA          NA
#> 4 0446157747 USC CARE MEDICAL GROUP … CAHPS for MIPS…          NA          NA
#> 5 0446157747 USC CARE MEDICAL GROUP … CAHPS for MIPS…          NA          NA
#> 6 0446157747 USC CARE MEDICAL GROUP … CAHPS for MIPS…          NA          NA
#> # ℹ 494 more rows
#> # ℹ 4 more variables: CAHPS_GRP_3 <dbl>, CAHPS_GRP_5 <dbl>, …

출력이 아주 맞아 보이지는 않습니다. 여전히 각 조직에 대해 여러 행이 있는 것 같습니다. 그 이유는 pivot_wider()에 어떤 열(들)이 각 행을 고유하게 식별하는 값을 가지고 있는지 알려줘야 하기 때문입니다. 이 경우 "org"로 시작하는 변수들입니다:

cms_patient_experience |> 
  pivot_wider(
    id_cols = starts_with("org"),
    names_from = measure_cd,
    values_from = prf_rate
  )
#> # A tibble: 95 × 8
#>   org_pac_id org_nm           CAHPS_GRP_1 CAHPS_GRP_2 CAHPS_GRP_3 CAHPS_GRP_5
#>   <chr>      <chr>                  <dbl>       <dbl>       <dbl>       <dbl>
#> 1 0446157747 USC CARE MEDICA…          63          87          86          57
#> 2 0446162697 ASSOCIATION OF …          59          85          83          63
#> 3 0547164295 BEAVER MEDICAL …          49          NA          75          44
#> 4 0749333730 CAPE PHYSICIANS…          67          84          85          65
#> 5 0840104360 ALLIANCE PHYSIC…          66          87          87          64
#> 6 0840109864 REX HOSPITAL INC          73          87          84          67
#> # ℹ 89 more rows
#> # ℹ 2 more variables: CAHPS_GRP_8 <dbl>, CAHPS_GRP_12 <dbl>
…
