10 탐색적 데이터 분석(Exploratory data analysis) – R for Data Science (2e)
…
플롯에 있는 각 원의 크기는 각 값 조합에서 얼마나 많은 관측값이 발생했는지를 나타냅니다. 공변동은 특정 x 값과 특정 y 값 사이의 강한 상관관계로 나타날 것입니다.

이러한 변수 간의 관계를 탐색하기 위한 또 다른 접근 방식은 dplyr로 개수를 계산하는 것입니다:

diamonds |> 
  count(color, cut)
#> # A tibble: 35 × 3
#>   color cut           n
#>   <ord> <ord>     <int>
#> 1 D     Fair        163
#> 2 D     Good        662
#> 3 D     Very Good  1513
#> 4 D     Premium    1603
#> 5 D     Ideal      2834
#> 6 E     Fair        224
#> # ℹ 29 more rows
…
