16 팩터(Factors) – R for Data Science (2e)
…
df <- read_csv(csv, col_types = cols(month = col_factor(month_levels)))
df$month
#> [1] Jan Feb Mar
#> Levels: Jan Feb Mar Apr May Jun Jul Aug Sep Oct Nov Dec

16.3 종합 사회 조사(General Social Survey)

이 장의 나머지 부분에서는 forcats::gss_cat을 사용할 것입니다. 이것은 시카고 대학의 독립 연구 기관인 NORC가 수행하는 장기 미국 설문 조사인 종합 사회 조사(General Social Survey)의 데이터 샘플입니다. 설문 조사에는 수천 개의 질문이 있으므로 gss_cat에서 해들리(Hadley)는 팩터로 작업할 때 직면하게 될 몇 가지 일반적인 문제를 설명할 수 있는 몇 가지를 선택했습니다.

gss_cat
#> # A tibble: 21,483 × 9
#>    year marital         age race  rincome        partyid           
#>   <int> <fct>         <int> <fct> <fct>          <fct>             
#> 1  2000 Never married    26 White $8000 to 9999  Ind,near rep      
#> 2  2000 Divorced         48 White $8000 to 9999  Not str republican
#> 3  2000 Widowed          67 White Not applicable Independent       
#> 4  2000 Never married    39 White Not applicable Ind,near rep      
#> 5  2000 Divorced         25 White Not applicable Not str democrat  
#> 6  2000 Married          25 White $20000 - 24999 Strong democrat   
#> # ℹ 21,477 more rows
#> # ℹ 3 more variables: relig <fct>, denom <fct>, tvhours <int>
…
16.4.1 연습문제

tvhours에 의심스럽게 높은 숫자가 몇 개 있습니다. 평균이 좋은 요약입니까?

gss_cat의 각 팩터에 대해 수준의 순서가 임의적인지 원칙적인지 식별하세요.

“Not applicable”을 수준의 맨 앞으로 이동시켰는데 왜 플롯의 맨 아래로 이동했습니까?

16.5 팩터 수준 수정

수준의 순서를 변경하는 것보다 더 강력한 것은 값을 변경하는 것입니다. 이를 통해 출판을 위해 레이블을 명확히 하고 상위 수준 디스플레이를 위해 수준을 축소할 수 있습니다. 가장 일반적이고 강력한 도구는 fct_recode()입니다. 각 수준의 값을 다시 코딩하거나 변경할 수 있습니다. 예를 들어 gss_cat 데이터 프레임의 partyid 변수를 가져와 보겠습니다:

gss_cat |> count(partyid)
#> # A tibble: 10 × 2
#>   partyid                n
#>   <fct>              <int>
#> 1 No answer            154
#> 2 Don't know             1
#> 3 Other party          393
#> 4 Strong republican   2314
#> 5 Not str republican  3032
#> 6 Ind,near rep        1791
#> # ℹ 4 more rows
수준이 간결하고 일관성이 없습니다. 더 길게 수정하고 병렬 구조를 사용해 보겠습니다. tidyverse의 대부분의 이름 바꾸기 및 다시 코딩 함수와 마찬가지로 새 값은 왼쪽에 가고 이전 값은 오른쪽에 갑니다:

gss_cat |>
  mutate(
    partyid = fct_recode(partyid,
      "Republican, strong"    = "Strong republican",
      "Republican, weak"      = "Not str republican",
      "Independent, near rep" = "Ind,near rep",
      "Independent, near dem" = "Ind,near dem",
      "Democrat, weak"        = "Not str democrat",
      "Democrat, strong"      = "Strong democrat"
    )
  ) |>
  count(partyid)
#> # A tibble: 10 × 2
#>   partyid                   n
#>   <fct>                 <int>
#> 1 No answer               154
#> 2 Don't know                1
#> 3 Other party             393
#> 4 Republican, strong     2314
#> 5 Republican, weak       3032
#> 6 Independent, near rep  1791
#> # ℹ 4 more rows
…
gss_cat |>
  mutate(relig = fct_lump_lowfreq(relig)) |>
  count(relig)
#> # A tibble: 2 × 2
#>   relig          n
#>   <fct>      <int>
#> 1 Protestant 10846
#> 2 Other      10637

이 경우 별로 도움이 되지 않습니다. 이 설문 조사의 대다수 미국인이 개신교인 것은 사실이지만 아마도 더 자세한 내용을 보고 싶을 것입니다! 대신 fct_lump_n()을 사용하여 정확히 10개의 그룹을 원한다고 지정할 수 있습니다:

gss_cat |>
  mutate(relig = fct_lump_n(relig, n = 10)) |>
  count(relig, sort = TRUE)
#> # A tibble: 10 × 2
#>   relig          n
#>   <fct>      <int>
#> 1 Protestant 10846
#> 2 Catholic    5124
#> 3 None        3523
#> 4 Christian    689
#> 5 Other        458
#> 6 Jewish       388
#> # ℹ 4 more rows
…
