25 함수 (Functions) – R for Data Science (2e)
…
여러 변수를 요약하려면 Section 26.2 까지 기다려야 하며, 거기서 across() 사용법을 배우게 될 것입니다.

또 다른 인기 있는 summarize() 도우미 함수는 비율도 계산하는 count()의 버전입니다:

# https://twitter.com/Diabb6/status/1571635146658402309
count_prop <- function(df, var, sort = FALSE) {
  df |>
    count({{ var }}, sort = sort) |>
    mutate(prop = n / sum(n))
}

diamonds |> count_prop(clarity)
#> # A tibble: 8 × 3
#>   clarity     n   prop
#>   <ord>   <int>  <dbl>
#> 1 I1        741 0.0137
#> 2 SI2      9194 0.170 
#> 3 SI1     13065 0.242 
#> 4 VS2     12258 0.227 
#> 5 VS1      8171 0.151 
#> 6 VVS2     5066 0.0939
#> # ℹ 2 more rows

이 함수에는 df, var, sort의 세 가지 인수가 있으며, 모든 변수에 대해 데이터 마스킹을 사용하는 count()에 전달되므로 var만 감싸면 됩니다. 사용자가 자신의 값을 제공하지 않으면 기본적으로 FALSE가 되도록 sort에 기본값을 사용한다는 점에 유의하세요.

또는 데이터의 하위 집합에 대해 변수의 정렬된 고유 값을 찾고 싶을 수도 있습니다. 필터링을 수행하기 위해 변수와 값을 제공하는 대신 사용자가 조건을 제공하도록 허용합니다:

unique_where <- function(df, condition, var) {
  df |> 
    filter({{ condition }}) |> 
    distinct({{ var }}) |> 
    arrange({{ var }})
}

# 12월의 모든 목적지 찾기
flights |> unique_where(month == 12, dest)
#> # A tibble: 96 × 1
#>   dest 
#>   <chr>
#> 1 ABQ  
#> 2 ALB  
#> 3 ATL  
#> 4 AUS  
#> 5 AVL  
#> 6 BDL  
#> # ℹ 90 more rows
…
group_by()는 tidy 선택이 아니라 데이터 마스킹을 사용하기 때문에 이것은 작동하지 않습니다. 데이터 마스킹 함수 내부에서 tidy 선택을 사용할 수 있게 해주는 편리한 pick() 함수를 사용하여 이 문제를 해결할 수 있습니다:

count_missing <- function(df, group_vars, x_var) {
  df |> 
    group_by(pick({{ group_vars }})) |> 
    summarize(
      n_miss = sum(is.na({{ x_var }})),
      .groups = "drop"
  )
}

flights |> 
  count_missing(c(year, month, day), dep_time)
#> # A tibble: 365 × 4
#>    year month   day n_miss
#>   <int> <int> <int>  <int>
#> 1  2013     1     1      4
#> 2  2013     1     2      8
#> 3  2013     1     3     10
#> 4  2013     1     4      6
#> 5  2013     1     5      3
#> 6  2013     1     6      1
#> # ℹ 359 more rows
…
# https://twitter.com/pollicipes/status/1571606508944719876
count_wide <- function(data, rows, cols) {
  data |> 
    count(pick(c({{ rows }}, {{ cols }}))) |> 
    pivot_wider(
      names_from = {{ cols }}, 
      values_from = n,
      names_sort = TRUE,
      values_fill = 0
    )
}

diamonds |> count_wide(c(clarity, color), cut)
#> # A tibble: 56 × 7
#>   clarity color  Fair  Good `Very Good` Premium Ideal
#>   <ord>   <ord> <int> <int>       <int>   <int> <int>
#> 1 I1      D         4     8           5      12    13
#> 2 I1      E         9    23          22      30    18
#> 3 I1      F        35    19          13      34    42
#> 4 I1      G        53    19          16      46    16
#> 5 I1      H        52    14          12      46    38
#> 6 I1      I        34     9           8      24    17
#> # ℹ 50 more rows
…
