26 반복 – R for Data Science (2e)
…
현재로서는 across()를 사용하여 이 작업을 수행할 수 있는 방법이 없지만4, pivot_longer()를 사용하면 비교적 간단합니다:

df_long <- df_paired |> 
  pivot_longer(
    everything(), 
    names_to = c("group", ".value"), 
    names_sep = "_"
  )
df_long
#> # A tibble: 40 × 3
#>   group    val   wts
#>   <chr>  <dbl> <dbl>
#> 1 a     -1.40  0.290
#> 2 b     -1.86  0.461
#> 3 c      0.935 0.528
#> 4 d      2.76  0.709
#> 5 a      0.255 0.678
#> 6 b     -0.522 0.315
#> # ℹ 34 more rows
…
하지만 각 시트를 자체 변수에 넣으면 몇 단계 후에 작업하기가 매우 어려워질 것입니다. 대신 단일 객체에 넣는 것이 작업하기 더 쉬울 것입니다. 리스트는 이 작업에 완벽한 도구입니다:

files <- list(
  readxl::read_excel("data/gapminder/1952.xlsx"),
  readxl::read_excel("data/gapminder/1957.xlsx"),
  readxl::read_excel("data/gapminder/1962.xlsx"),
  ...,
  readxl::read_excel("data/gapminder/2007.xlsx")
)

이제 리스트에 이 데이터 프레임들이 있으니, 어떻게 하나를 꺼낼까요? files[[i]]를 사용하여 i번째 요소를 추출할 수 있습니다:

files[[3]]
#> # A tibble: 142 × 5
#>   country     continent lifeExp      pop gdpPercap
#>   <chr>       <chr>       <dbl>    <dbl>     <dbl>
#> 1 Afghanistan Asia         32.0 10267083      853.
#> 2 Albania     Europe       64.8  1728137     2313.
#> 3 Algeria     Africa       48.3 11000948     2551.
#> 4 Angola      Africa       34    4826015     4269.
#> 5 Argentina   Americas     65.1 21283783     7133.
#> 6 Australia   Oceania      70.9 10794968    12217.
#> # ℹ 136 more rows
…
list(
  f(x[[1]]),
  f(x[[2]]),
  ...,
  f(x[[n]])
)

따라서 map()을 사용하여 12개의 데이터 프레임 리스트를 얻을 수 있습니다:

files <- map(paths, readxl::read_excel)
length(files)
#> [1] 12

files[[1]]
#> # A tibble: 142 × 5
#>   country     continent lifeExp      pop gdpPercap
#>   <chr>       <chr>       <dbl>    <dbl>     <dbl>
#> 1 Afghanistan Asia         28.8  8425333      779.
#> 2 Albania     Europe       55.2  1282697     1601.
#> 3 Algeria     Africa       43.1  9279525     2449.
#> 4 Angola      Africa       30.0  4232095     3521.
#> 5 Argentina   Americas     62.5 17876956     5911.
#> 6 Australia   Oceania      69.1  8691212    10040.
#> # ℹ 136 more rows

(이것은 str()로 특히 간결하게 표시되지 않는 또 다른 데이터 구조이므로, RStudio에 로드하고 View()로 검사하고 싶을 수 있습니다.)

이제 purrr::list_rbind()를 사용하여 해당 데이터 프레임 리스트를 단일 데이터 프레임으로 결합할 수 있습니다:

list_rbind(files)
#> # A tibble: 1,704 × 5
#>   country     continent lifeExp      pop gdpPercap
#>   <chr>       <chr>       <dbl>    <dbl>     <dbl>
#> 1 Afghanistan Asia         28.8  8425333      779.
#> 2 Albania     Europe       55.2  1282697     1601.
#> 3 Algeria     Africa       43.1  9279525     2449.
#> 4 Angola      Africa       30.0  4232095     3521.
#> 5 Argentina   Americas     62.5 17876956     5911.
#> 6 Australia   Oceania      69.1  8691212    10040.
#> # ℹ 1,698 more rows

또는 파이프라인에서 두 단계를 한 번에 수행할 수도 있습니다:

paths |> 
  map(readxl::read_excel) |> 
  list_rbind()

read_excel()에 추가 인수를 전달하고 싶다면 어떻게 할까요? across()와 동일한 기술을 사용합니다. 예를 들어, n_max = 1을 사용하여 데이터의 처음 몇 행만 엿보는 것이 종종 유용합니다:

paths |> 
  map(\(path) readxl::read_excel(path, n_max = 1)) |> 
  list_rbind()
#> # A tibble: 12 × 5
#>   country     continent lifeExp      pop gdpPercap
#>   <chr>       <chr>       <dbl>    <dbl>     <dbl>
#> 1 Afghanistan Asia         28.8  8425333      779.
#> 2 Afghanistan Asia         30.3  9240934      821.
#> 3 Afghanistan Asia         32.0 10267083      853.
#> 4 Afghanistan Asia         34.0 11537966      836.
#> 5 Afghanistan Asia         36.1 13079460      740.
#> 6 Afghanistan Asia         38.4 14880372      786.
#> # ℹ 6 more rows
…
이렇게 하면 map() 호출은 다음의 단축 표현이 됩니다:

files <- list(
  "1952.xlsx" = readxl::read_excel("data/gapminder/1952.xlsx"),
  "1957.xlsx" = readxl::read_excel("data/gapminder/1957.xlsx"),
  "1962.xlsx" = readxl::read_excel("data/gapminder/1962.xlsx"),
  ...,
  "2007.xlsx" = readxl::read_excel("data/gapminder/2007.xlsx")
)

또한 [[를 사용하여 이름으로 요소를 추출할 수 있습니다:

files[["1962.xlsx"]]
#> # A tibble: 142 × 5
#>   country     continent lifeExp      pop gdpPercap
#>   <chr>       <chr>       <dbl>    <dbl>     <dbl>
#> 1 Afghanistan Asia         32.0 10267083      853.
#> 2 Albania     Europe       64.8  1728137     2313.
#> 3 Algeria     Africa       48.3 11000948     2551.
#> 4 Angola      Africa       34    4826015     4269.
#> 5 Argentina   Americas     65.1 21283783     7133.
#> 6 Australia   Oceania      70.9 10794968    12217.
#> # ℹ 136 more rows

그런 다음 list_rbind()의 names_to 인수를 사용하여 이름을 year라는 새 열에 저장하도록 지시한 다음, readr::parse_number()를 사용하여 문자열에서 숫자를 추출합니다.

paths |> 
  set_names(basename) |> 
  map(readxl::read_excel) |> 
  list_rbind(names_to = "year") |> 
  mutate(year = parse_number(year))
#> # A tibble: 1,704 × 6
#>    year country     continent lifeExp      pop gdpPercap
#>   <dbl> <chr>       <chr>       <dbl>    <dbl>     <dbl>
#> 1  1952 Afghanistan Asia         28.8  8425333      779.
#> 2  1952 Albania     Europe       55.2  1282697     1601.
#> 3  1952 Algeria     Africa       43.1  9279525     2449.
#> 4  1952 Angola      Africa       30.0  4232095     3521.
#> 5  1952 Argentina   Americas     62.5 17876956     5911.
#> 6  1952 Australia   Oceania      69.1  8691212    10040.
#> # ℹ 1,698 more rows

더 복잡한 경우에는 디렉터리 이름에 다른 변수가 저장되어 있거나, 파일 이름에 여러 데이터 비트가 포함되어 있을 수 있습니다. 이 경우 set_names()(인수 없이)를 사용하여 전체 경로를 기록한 다음, tidyr::separate_wider_delim()과 그 친구들을 사용하여 유용한 열로 변환하세요.

paths |> 
  set_names() |> 
  map(readxl::read_excel) |> 
  list_rbind(names_to = "year") |> 
  separate_wider_delim(year, delim = "/", names = c(NA, "dir", "file")) |> 
  separate_wider_delim(file, delim = ".", names = c("file", "ext"))
#> # A tibble: 1,704 × 8
#>   dir       file  ext   country     continent lifeExp      pop gdpPercap
#>   <chr>     <chr> <chr> <chr>       <chr>       <dbl>    <dbl>     <dbl>
#> 1 gapminder 1952  xlsx  Afghanistan Asia         28.8  8425333      779.
#> 2 gapminder 1952  xlsx  Albania     Europe       55.2  1282697     1601.
#> 3 gapminder 1952  xlsx  Algeria     Africa       43.1  9279525     2449.
#> 4 gapminder 1952  xlsx  Angola      Africa       30.0  4232095     3521.
#> 5 gapminder 1952  xlsx  Argentina   Americas     62.5 17876956     5911.
#> 6 gapminder 1952  xlsx  Australia   Oceania      69.1  8691212    10040.
#> # ℹ 1,698 more rows
…
그런 다음 이 함수를 모든 파일에 적용하고, 차이점이 어디에 있는지 더 쉽게 볼 수 있도록 피벗을 수행할 수 있습니다. 예를 들어, 이를 통해 우리가 작업해 온 gapminder 스프레드시트가 모두 상당히 동질적임을 쉽게 확인할 수 있습니다:

files |> 
  map(df_types) |> 
  list_rbind(names_to = "file_name") |> 
  select(-n_miss) |> 
  pivot_wider(names_from = col_name, values_from = col_type)
#> # A tibble: 12 × 6
#>   file_name country   continent lifeExp pop    gdpPercap
#>   <chr>     <chr>     <chr>     <chr>   <chr>  <chr>    
#> 1 1952.xlsx character character double  double double   
#> 2 1957.xlsx character character double  double double   
#> 3 1962.xlsx character character double  double double   
#> 4 1967.xlsx character character double  double double   
#> 5 1972.xlsx character character double  double double   
#> 6 1977.xlsx character character double  double double   
#> # ℹ 6 more rows
…
때로는 한꺼번에 많은 파일로 작업할 때 모든 데이터를 메모리에 한 번에 올릴 수 없어서 map(files, read_csv)를 수행할 수 없는 경우가 있습니다. 이 문제를 처리하는 한 가지 접근 방식은 dbplyr을 사용하여 필요한 부분만 액세스할 수 있도록 데이터를 데이터베이스에 로드하는 것입니다.

운이 좋다면 사용 중인 데이터베이스 패키지가 경로 벡터를 받아서 모두 데이터베이스에 로드하는 편리한 함수를 제공할 것입니다. duckdb의 duckdb_read_csv()가 그런 사례입니다:

con <- DBI::dbConnect(duckdb::duckdb())
duckdb::duckdb_read_csv(con, "gapminder", paths)

이것은 여기서 잘 작동하겠지만, 우리는 csv 파일이 아니라 엑셀 스프레드시트를 가지고 있습니다. 그래서 “수동으로” 해야 할 것입니다. 수동으로 하는 법을 배우면 csv 파일 뭉치가 있고, 작업 중인 데이터베이스에 이를 모두 로드하는 단일 함수가 없는 경우에도 도움이 될 것입니다.

먼저 데이터를 채울 테이블을 만드는 것부터 시작해야 합니다. 가장 쉬운 방법은 원하는 모든 열을 포함하지만 데이터는 샘플링된 정도만 포함하는 더미 데이터 프레임인 템플릿을 만드는 것입니다. gapminder 데이터의 경우, 단일 파일을 읽고 연도를 추가하여 해당 템플릿을 만들 수 있습니다:

template <- readxl::read_excel(paths[[1]])
template$year <- 1952
template
#> # A tibble: 142 × 6
#>   country     continent lifeExp      pop gdpPercap  year
#>   <chr>       <chr>       <dbl>    <dbl>     <dbl> <dbl>
#> 1 Afghanistan Asia         28.8  8425333      779.  1952
#> 2 Albania     Europe       55.2  1282697     1601.  1952
#> 3 Algeria     Africa       43.1  9279525     2449.  1952
#> 4 Angola      Africa       30.0  4232095     3521.  1952
#> 5 Argentina   Americas     62.5 17876956     5911.  1952
#> 6 Australia   Oceania      69.1  8691212    10040.  1952
#> # ℹ 136 more rows
…
26.4.2 csv 파일 쓰기

각 그룹에 대해 하나씩 여러 csv 파일을 쓰려는 경우에도 동일한 기본 원칙이 적용됩니다. ggplot2::diamonds 데이터를 가져와서 각 clarity(투명도)별로 하나의 csv 파일을 저장하고 싶다고 가정해 봅시다. 먼저 그 개별 데이터셋들을 만들어야 합니다. 여러 가지 방법으로 할 수 있지만, 우리가 특히 좋아하는 방법은 group_nest()입니다.

by_clarity <- diamonds |> 
  group_nest(clarity)

by_clarity
#> # A tibble: 8 × 2
#>   clarity               data
#>   <ord>   <list<tibble[,9]>>
#> 1 I1               [741 × 9]
#> 2 SI2            [9,194 × 9]
#> 3 SI1           [13,065 × 9]
#> 4 VS2           [12,258 × 9]
#> 5 VS1            [8,171 × 9]
#> 6 VVS2           [5,066 × 9]
#> # ℹ 2 more rows

이것은 8개의 행과 2개의 열이 있는 새로운 티블을 제공합니다. clarity는 그룹화 변수이고, data는 각 고유한 clarity 값에 대해 하나의 티블을 포함하는 리스트 열입니다:

by_clarity$data[[1]]
#> # A tibble: 741 × 9
#>   carat cut       color depth table price     x     y     z
#>   <dbl> <ord>     <ord> <dbl> <dbl> <int> <dbl> <dbl> <dbl>
#> 1  0.32 Premium   E      60.9    58   345  4.38  4.42  2.68
#> 2  1.17 Very Good J      60.2    61  2774  6.83  6.9   4.13
#> 3  1.01 Premium   F      61.8    60  2781  6.39  6.36  3.94
#> 4  1.01 Fair      E      64.5    58  2788  6.29  6.21  4.03
#> 5  0.96 Ideal     F      60.7    55  2801  6.37  6.41  3.88
#> 6  1.04 Premium   G      62.2    58  2801  6.46  6.41  4   
#> # ℹ 735 more rows

여기서 mutate()와 str_glue()를 사용하여 출력 파일의 이름을 제공하는 열을 만들어 보겠습니다:

by_clarity <- by_clarity |> 
  mutate(path = str_glue("diamonds-{clarity}.csv"))

by_clarity
#> # A tibble: 8 × 3
#>   clarity               data path             
#>   <ord>   <list<tibble[,9]>> <glue>           
#> 1 I1               [741 × 9] diamonds-I1.csv  
#> 2 SI2            [9,194 × 9] diamonds-SI2.csv 
#> 3 SI1           [13,065 × 9] diamonds-SI1.csv 
#> 4 VS2           [12,258 × 9] diamonds-VS2.csv 
#> 5 VS1            [8,171 × 9] diamonds-VS1.csv 
#> 6 VVS2           [5,066 × 9] diamonds-VVS2.csv
#> # ℹ 2 more rows
…
