9 레이어(Layers) – R for Data Science (2e)
…
이 장은 ggplot2에 중점을 둡니다. 이 장에서 사용되는 데이터셋, 도움말 페이지, 함수에 액세스하려면 다음 코드를 실행하여 tidyverse를 로드하세요:

library(tidyverse)
#> Warning: package 'ggplot2' was built under R version 4.5.2
#> Warning: package 'readr' was built under R version 4.5.2

9.2 심미적 매핑

“그림의 가장 큰 가치는 우리가 결코 볼 것이라고 예상하지 못했던 것을 알아차리게 할 때이다.” — 존 튜키(John Tukey)

ggplot2 패키지와 함께 제공되는 mpg 데이터 프레임에는 38개의 자동차 모델에 대한 234개의 관측값이 포함되어 있음을 기억하세요.

mpg
#> # A tibble: 234 × 11
#>   manufacturer model displ  year   cyl trans      drv     cty   hwy fl   
#>   <chr>        <chr> <dbl> <int> <int> <chr>      <chr> <int> <int> <chr>
#> 1 audi         a4      1.8  1999     4 auto(l5)   f        18    29 p    
#> 2 audi         a4      1.8  1999     4 manual(m5) f        21    29 p    
#> 3 audi         a4      2    2008     4 manual(m6) f        20    31 p    
#> 4 audi         a4      2    2008     4 auto(av)   f        21    30 p    
#> 5 audi         a4      2.8  1999     6 auto(l5)   f        16    26 p    
#> 6 audi         a4      2.8  1999     6 manual(m5) f        18    26 p    
#> # ℹ 228 more rows
#> # ℹ 1 more variable: class <chr>
…
