12 논리형 벡터 – R for Data Science (2e)
…
그러나 더 많은 도구를 다루기 시작하면서 완벽한 실제 예제가 항상 있는 것은 아닙니다. 그래서 c()로 더미 데이터를 만들기 시작할 것입니다:

x <- c(1, 2, 3, 5, 7, 11, 13)
x * 2
#> [1]  2  4  6 10 14 22 26

이렇게 하면 데이터 문제에 어떻게 적용될 수 있는지 보기 어렵게 만드는 대신 개별 함수를 설명하기가 더 쉬워집니다. 자유 부동(free-floating) 벡터에 수행하는 모든 조작은 mutate() 및 친구들을 사용하여 데이터 프레임 내부의 변수에 수행할 수 있다는 점을 기억하세요.

df <- tibble(x)
df |> 
  mutate(y = x * 2)
#> # A tibble: 7 × 2
#>       x     y
#>   <dbl> <dbl>
#> 1     1     2
#> 2     2     4
#> 3     3     6
#> 4     5    10
#> 5     7    14
#> 6    11    22
#> # ℹ 1 more row

12.2 비교

논리형 벡터를 만드는 매우 일반적인 방법은 <, <=, >, >=, !=, ==를 사용한 숫자 비교를 통하는 것입니다. 지금까지 우리는 주로 filter() 내에서 논리형 변수를 일시적으로 생성했습니다. 계산되고, 사용된 다음, 버려졌습니다. 예를 들어 다음 필터는 대략 제시간에 도착하는 모든 주간 출발 항공편을 찾습니다:

flights |> 
  filter(dep_time > 600 & dep_time < 2000 & abs(arr_delay) < 20)
#> # A tibble: 172,286 × 19
#>    year month   day dep_time sched_dep_time dep_delay arr_time sched_arr_time
#>   <int> <int> <int>    <int>          <int>     <dbl>    <int>          <int>
#> 1  2013     1     1      601            600         1      844            850
#> 2  2013     1     1      602            610        -8      812            820
#> 3  2013     1     1      602            605        -3      821            805
#> 4  2013     1     1      606            610        -4      858            910
#> 5  2013     1     1      606            610        -4      837            845
#> 6  2013     1     1      607            607         0      858            915
#> # ℹ 172,280 more rows
#> # ℹ 11 more variables: arr_delay <dbl>, carrier <chr>, flight <int>, …

이것이 단축키이며 mutate()로 기본 논리형 변수를 명시적으로 생성할 수 있다는 것을 아는 것이 유용합니다:

flights |> 
  mutate(
    daytime = dep_time > 600 & dep_time < 2000,
    approx_ontime = abs(arr_delay) < 20,
    .keep = "used"
  )
#> # A tibble: 336,776 × 4
#>   dep_time arr_delay daytime approx_ontime
#>      <int>     <dbl> <lgl>   <lgl>        
#> 1      517        11 FALSE   TRUE         
#> 2      533        20 FALSE   FALSE        
#> 3      542        33 FALSE   FALSE        
#> 4      544       -18 FALSE   TRUE         
#> 5      554       -25 FALSE   FALSE        
#> 6      554        12 FALSE   TRUE         
#> # ℹ 336,770 more rows
…
is.na(x)는 모든 유형의 벡터와 작동하며 결측값에 대해서는 TRUE를 반환하고 그 외의 모든 것에 대해서는 FALSE를 반환합니다:

is.na(c(TRUE, NA, FALSE))
#> [1] FALSE  TRUE FALSE
is.na(c(1, NA, 3))
#> [1] FALSE  TRUE FALSE
is.na(c("a", NA, "b"))
#> [1] FALSE  TRUE FALSE

is.na()를 사용하여 dep_time이 누락된 모든 행을 찾을 수 있습니다:

flights |> 
  filter(is.na(dep_time))
#> # A tibble: 8,255 × 19
#>    year month   day dep_time sched_dep_time dep_delay arr_time sched_arr_time
#>   <int> <int> <int>    <int>          <int>     <dbl>    <int>          <int>
#> 1  2013     1     1       NA           1630        NA       NA           1815
#> 2  2013     1     1       NA           1935        NA       NA           2240
#> 3  2013     1     1       NA           1500        NA       NA           1825
#> 4  2013     1     1       NA            600        NA       NA            901
#> 5  2013     1     2       NA           1540        NA       NA           1747
#> 6  2013     1     2       NA           1620        NA       NA           1746
#> # ℹ 8,249 more rows
#> # ℹ 11 more variables: arr_delay <dbl>, carrier <chr>, flight <int>, …

is.na()는 arrange()에서도 유용할 수 있습니다. arrange()는 일반적으로 모든 결측값을 끝에 배치하지만 먼저 is.na()로 정렬하여 이 기본값을 재정의할 수 있습니다:

flights |> 
  filter(month == 1, day == 1) |> 
  arrange(dep_time)
#> # A tibble: 842 × 19
#>    year month   day dep_time sched_dep_time dep_delay arr_time sched_arr_time
#>   <int> <int> <int>    <int>          <int>     <dbl>    <int>          <int>
#> 1  2013     1     1      517            515         2      830            819
#> 2  2013     1     1      533            529         4      850            830
#> 3  2013     1     1      542            540         2      923            850
#> 4  2013     1     1      544            545        -1     1004           1022
#> 5  2013     1     1      554            600        -6      812            837
#> 6  2013     1     1      554            558        -4      740            728
#> # ℹ 836 more rows
#> # ℹ 11 more variables: arr_delay <dbl>, carrier <chr>, flight <int>, …

flights |> 
  filter(month == 1, day == 1) |> 
  arrange(desc(is.na(dep_time)), dep_time)
#> # A tibble: 842 × 19
#>    year month   day dep_time sched_dep_time dep_delay arr_time sched_arr_time
#>   <int> <int> <int>    <int>          <int>     <dbl>    <int>          <int>
#> 1  2013     1     1       NA           1630        NA       NA           1815
#> 2  2013     1     1       NA           1935        NA       NA           2240
#> 3  2013     1     1       NA           1500        NA       NA           1825
#> 4  2013     1     1       NA            600        NA       NA            901
#> 5  2013     1     1      517            515         2      830            819
#> 6  2013     1     1      533            529         4      850            830
#> # ℹ 836 more rows
#> # ℹ 11 more variables: arr_delay <dbl>, carrier <chr>, flight <int>, …
…
무슨 일이 일어나고 있는지 이해하려면 NA | TRUE(NA 또는 TRUE)에 대해 생각해 보세요. 논리형 벡터의 결측값은 값이 TRUE 또는 FALSE일 수 있음을 의미합니다. TRUE | TRUE와 FALSE | TRUE는 둘 중 하나가 적어도 TRUE이므로 둘 다 TRUE입니다. NA | TRUE 또한 NA가 TRUE 또는 FALSE일 수 있으므로 TRUE여야 합니다. 그러나 NA | FALSE는 NA가 TRUE인지 FALSE인지 모르기 때문에 NA입니다. 두 조건이 모두 충족되어야 한다는 점을 고려하면 &에도 유사한 추론이 적용됩니다. 따라서 NA & TRUE는 NA가 TRUE 또는 FALSE일 수 있으므로 NA이고, NA & FALSE는 조건 중 하나가 적어도 FALSE이므로 FALSE입니다.

12.3.2 연산 순서

연산 순서가 영어처럼 작동하지 않는다는 점에 유의하세요. 11월 또는 12월에 출발한 모든 항공편을 찾는 다음 코드를 살펴보세요:

flights |> 
   filter(month == 11 | month == 12)

영어에서 말하는 것처럼 쓰고 싶을 수도 있습니다: “11월 또는 12월에 출발한 모든 항공편 찾기.”

flights |> 
   filter(month == 11 | 12)
#> # A tibble: 336,776 × 19
#>    year month   day dep_time sched_dep_time dep_delay arr_time sched_arr_time
#>   <int> <int> <int>    <int>          <int>     <dbl>    <int>          <int>
#> 1  2013     1     1      517            515         2      830            819
#> 2  2013     1     1      533            529         4      850            830
#> 3  2013     1     1      542            540         2      923            850
#> 4  2013     1     1      544            545        -1     1004           1022
#> 5  2013     1     1      554            600        -6      812            837
#> 6  2013     1     1      554            558        -4      740            728
#> # ℹ 336,770 more rows
#> # ℹ 11 more variables: arr_delay <dbl>, carrier <chr>, flight <int>, …

이 코드는 오류가 발생하지 않지만 작동하지도 않는 것 같습니다. 무슨 일일까요? 여기서 R은 먼저 month == 11을 평가하여 nov라고 하는 논리형 벡터를 생성합니다. nov | 12를 계산합니다. 논리 연산자와 함께 숫자를 사용하면 0을 제외한 모든 것을 TRUE로 변환하므로 이는 nov | TRUE와 동일하며, 이는 항상 TRUE이므로 모든 행이 선택됩니다:

flights |> 
  mutate(
    nov = month == 11,
    final = nov | 12,
    .keep = "used"
  )
#> # A tibble: 336,776 × 3
#>   month nov   final
#>   <int> <lgl> <lgl>
#> 1     1 FALSE TRUE 
#> 2     1 FALSE TRUE 
#> 3     1 FALSE TRUE 
#> 4     1 FALSE TRUE 
#> 5     1 FALSE TRUE 
#> 6     1 FALSE TRUE 
#> # ℹ 336,770 more rows
…
flights |> 
  filter(month %in% c(11, 12))

%in%은 NA에 대해 ==와 다른 규칙을 따릅니다. NA %in% NA는 TRUE이기 때문입니다.

c(1, 2, NA) == NA
#> [1] NA NA NA
c(1, 2, NA) %in% NA
#> [1] FALSE FALSE  TRUE

이것은 유용한 단축키가 될 수 있습니다:

flights |> 
  filter(dep_time %in% c(NA, 0800))
#> # A tibble: 8,803 × 19
#>    year month   day dep_time sched_dep_time dep_delay arr_time sched_arr_time
#>   <int> <int> <int>    <int>          <int>     <dbl>    <int>          <int>
#> 1  2013     1     1      800            800         0     1022           1014
#> 2  2013     1     1      800            810       -10      949            955
#> 3  2013     1     1       NA           1630        NA       NA           1815
#> 4  2013     1     1       NA           1935        NA       NA           2240
#> 5  2013     1     1       NA           1500        NA       NA           1825
#> 6  2013     1     1       NA            600        NA       NA            901
#> # ℹ 8,797 more rows
#> # ℹ 11 more variables: arr_delay <dbl>, carrier <chr>, flight <int>, …
…
12.4.1 논리형 요약

두 가지 주요 논리형 요약이 있습니다: any()와 all(). any(x)는 |와 동일합니다. x에 TRUE가 하나라도 있으면 TRUE를 반환합니다. all(x)는 &와 동일합니다. x의 모든 값이 TRUE인 경우에만 TRUE를 반환합니다. 대부분의 요약 함수와 마찬가지로 na.rm = TRUE로 결측값을 없앨 수 있습니다.

예를 들어 all()과 any()를 사용하여 모든 항공편이 출발 시 최대 1시간 지연되었는지 또는 도착 시 5시간 이상 지연된 항공편이 있는지 알아볼 수 있습니다. 그리고 group_by()를 사용하면 일별로 수행할 수 있습니다:

flights |> 
  group_by(year, month, day) |> 
  summarize(
    all_delayed = all(dep_delay <= 60, na.rm = TRUE),
    any_long_delay = any(arr_delay >= 300, na.rm = TRUE),
    .groups = "drop"
  )
#> # A tibble: 365 × 5
#>    year month   day all_delayed any_long_delay
#>   <int> <int> <int> <lgl>       <lgl>         
#> 1  2013     1     1 FALSE       TRUE          
#> 2  2013     1     2 FALSE       TRUE          
#> 3  2013     1     3 FALSE       FALSE         
#> 4  2013     1     4 FALSE       FALSE         
#> 5  2013     1     5 FALSE       TRUE          
#> 6  2013     1     6 FALSE       FALSE         
#> # ℹ 359 more rows
…
12.4.2 논리형 벡터의 숫자 요약

숫자 맥락에서 논리형 벡터를 사용할 때 TRUE는 1이 되고 FALSE는 0이 됩니다. 이것은 sum()과 mean()을 논리형 벡터와 함께 사용할 때 매우 유용하게 만듭니다. sum(x)는 TRUE의 개수를 제공하고 mean(x)는 TRUE의 비율을 제공합니다(mean()은 단지 sum()을 length()로 나눈 것이기 때문입니다).

예를 들어 이를 통해 출발 시 최대 1시간 지연된 항공편의 비율과 도착 시 5시간 이상 지연된 항공편의 수를 볼 수 있습니다:

flights |> 
  group_by(year, month, day) |> 
  summarize(
    proportion_delayed = mean(dep_delay <= 60, na.rm = TRUE),
    count_long_delay = sum(arr_delay >= 300, na.rm = TRUE),
    .groups = "drop"
  )
#> # A tibble: 365 × 5
#>    year month   day proportion_delayed count_long_delay
#>   <int> <int> <int>              <dbl>            <int>
#> 1  2013     1     1              0.939                3
#> 2  2013     1     2              0.914                3
#> 3  2013     1     3              0.941                0
#> 4  2013     1     4              0.953                0
#> 5  2013     1     5              0.964                1
#> 6  2013     1     6              0.959                0
#> # ℹ 359 more rows
12.4.3 논리형 부분집합

요약에서 논리형 벡터를 사용하는 마지막 용도가 하나 있습니다. 논리형 벡터를 사용하여 단일 변수를 관심 있는 하위 집합으로 필터링할 수 있습니다. 이것은 기본(base) [ (부분집합이라고 발음) 연산자를 사용하며, 이에 대해서는 Section 27.2 에서 더 자세히 배울 것입니다.

실제로 지연된 항공편에 대한 평균 지연만 보고 싶다고 상상해 보세요. 그렇게 하는 한 가지 방법은 먼저 항공편을 필터링한 다음 평균 지연을 계산하는 것입니다:

flights |> 
  filter(arr_delay > 0) |> 
  group_by(year, month, day) |> 
  summarize(
    behind = mean(arr_delay),
    n = n(),
    .groups = "drop"
  )
#> # A tibble: 365 × 5
#>    year month   day behind     n
#>   <int> <int> <int>  <dbl> <int>
#> 1  2013     1     1   32.5   461
#> 2  2013     1     2   32.0   535
#> 3  2013     1     3   27.7   460
#> 4  2013     1     4   28.3   297
#> 5  2013     1     5   22.6   238
#> 6  2013     1     6   24.4   381
#> # ℹ 359 more rows

이것은 작동하지만 일찍 도착한 항공편에 대한 평균 지연도 계산하고 싶다면 어떻게 해야 할까요? 별도의 필터 단계를 수행한 다음 두 데이터 프레임을 결합하는 방법을 파악해야 합니다3. 대신 [를 사용하여 인라인 필터링을 수행할 수 있습니다: arr_delay[arr_delay > 0]은 양의 도착 지연만 산출합니다.

결과는 다음과 같습니다:

flights |> 
  group_by(year, month, day) |> 
  summarize(
    behind = mean(arr_delay[arr_delay > 0], na.rm = TRUE),
    ahead = mean(arr_delay[arr_delay < 0], na.rm = TRUE),
    n = n(),
    .groups = "drop"
  )
#> # A tibble: 365 × 6
#>    year month   day behind ahead     n
#>   <int> <int> <int>  <dbl> <dbl> <int>
#> 1  2013     1     1   32.5 -12.5   842
#> 2  2013     1     2   32.0 -14.3   943
#> 3  2013     1     3   27.7 -18.2   914
#> 4  2013     1     4   28.3 -17.0   915
#> 5  2013     1     5   22.6 -14.0   720
#> 6  2013     1     6   24.4 -13.6   832
#> # ℹ 359 more rows
…
if_else()와 마찬가지로 ~의 양쪽에서 변수를 사용할 수 있으며 문제에 필요한 대로 변수를 섞어서 사용할 수 있습니다. 예를 들어 case_when()을 사용하여 도착 지연에 대해 사람이 읽을 수 있는 레이블을 제공할 수 있습니다:

flights |> 
  mutate(
    status = case_when(
      is.na(arr_delay)      ~ "cancelled",
      arr_delay < -30       ~ "very early",
      arr_delay < -15       ~ "early",
      abs(arr_delay) <= 15  ~ "on time",
      arr_delay < 60        ~ "late",
      arr_delay < Inf       ~ "very late",
    ),
    .keep = "used"
  )
#> # A tibble: 336,776 × 2
#>   arr_delay status 
#>       <dbl> <chr>  
#> 1        11 on time
#> 2        20 late   
#> 3        33 late   
#> 4       -18 early  
#> 5       -25 early  
#> 6        12 on time
#> # ℹ 336,770 more rows
…
