18 결측값(Missing values) – R for Data Science (2e)
…
기본적으로 데이터를 길게 만들면 명시적 결측값이 보존되지만, 데이터가 깔끔하지 않기 때문에 존재하는 구조적 결측값인 경우 values_drop_na = TRUE를 설정하여 삭제(암시적으로 만듦)할 수 있습니다. 자세한 내용은 Section 5.2 의 예제를 참조하세요.

18.3.2 완료(Complete)

tidyr::complete()를 사용하면 존재해야 하는 행의 조합을 정의하는 변수 집합을 제공하여 명시적 결측값을 생성할 수 있습니다. 예를 들어 stocks 데이터에 year와 qtr의 모든 조합이 존재해야 한다는 것을 알고 있습니다:

stocks |>
  complete(year, qtr)
#> # A tibble: 8 × 3
#>    year   qtr price
#>   <dbl> <dbl> <dbl>
#> 1  2020     1  1.88
#> 2  2020     2  0.59
#> 3  2020     3  0.35
#> 4  2020     4 NA   
#> 5  2021     1 NA   
#> 6  2021     2  0.92
#> # ℹ 2 more rows

일반적으로 기존 변수의 이름으로 complete()를 호출하여 누락된 조합을 채웁니다. 그러나 때로는 개별 변수 자체가 불완전하므로 대신 자신의 데이터를 제공할 수 있습니다. 예를 들어 stocks 데이터셋이 2019년부터 2021년까지 실행되어야 한다는 것을 알 수 있으므로 year에 대해 해당 값을 명시적으로 제공할 수 있습니다:

stocks |>
  complete(year = 2019:2021, qtr)
#> # A tibble: 12 × 3
#>    year   qtr price
#>   <dbl> <dbl> <dbl>
#> 1  2019     1 NA   
#> 2  2019     2 NA   
#> 3  2019     3 NA   
#> 4  2019     4 NA   
#> 5  2020     1  1.88
#> 6  2020     2  0.59
#> # ℹ 6 more rows
…
flights |> 
  distinct(tailnum) |> 
  anti_join(planes)
#> Joining with `by = join_by(tailnum)`
#> # A tibble: 722 × 1
#>   tailnum
#>   <chr>  
#> 1 N3ALAA 
#> 2 N3DUAA 
#> 3 N542MQ 
#> 4 N730MQ 
#> 5 N9EAMQ 
#> 6 N532UA 
#> # ℹ 716 more rows
…
