13 숫자 – R for Data Science (2e)
…
문자열에 무시하고 싶은 숫자가 아닌 텍스트가 포함되어 있는 경우 parse_number()를 사용하세요. 이것은 통화 데이터와 백분율에 특히 유용합니다:

x <- c("$1,234", "USD 3,513", "59%")
parse_number(x)
#> [1] 1234 3513   59

13.3 개수(Counts)

개수와 약간의 기본 산술만으로 얼마나 많은 데이터 과학을 수행할 수 있는지 놀랍기 때문에 dplyr은 count()를 사용하여 가능한 한 쉽게 개수를 셀 수 있도록 노력합니다. 이 함수는 분석 중 빠른 탐색 및 확인에 좋습니다:

flights |> count(dest)
#> # A tibble: 105 × 2
#>   dest      n
#>   <chr> <int>
#> 1 ABQ     254
#> 2 ACK     265
#> 3 ALB     439
#> 4 ANC       8
#> 5 ATL   17215
#> 6 AUS    2439
#> # ℹ 99 more rows

(Chapter 4 의 조언에도 불구하고 계산이 예상대로 작동하는지 빠르게 확인하기 위해 콘솔에서 주로 사용되므로 count()는 보통 한 줄에 씁니다.)

가장 흔한 값을 보려면 sort = TRUE를 추가하세요:

flights |> count(dest, sort = TRUE)
#> # A tibble: 105 × 2
#>   dest      n
#>   <chr> <int>
#> 1 ORD   17283
#> 2 ATL   17215
#> 3 LAX   16174
#> 4 BOS   15508
#> 5 MCO   14082
#> 6 CLT   14064
#> # ℹ 99 more rows

그리고 모든 값을 보려면 |> View() 또는 |> print(n = Inf)를 사용할 수 있다는 것을 기억하세요.

group_by(), summarize(), n()을 사용하여 “수동으로” 동일한 계산을 수행할 수 있습니다. 이것은 동시에 다른 요약을 계산할 수 있기 때문에 유용합니다:

flights |> 
  group_by(dest) |> 
  summarize(
    n = n(),
    delay = mean(arr_delay, na.rm = TRUE)
  )
#> # A tibble: 105 × 3
#>   dest      n delay
#>   <chr> <int> <dbl>
#> 1 ABQ     254  4.38
#> 2 ACK     265  4.85
#> 3 ALB     439 14.4 
#> 4 ANC       8 -2.5 
#> 5 ATL   17215 11.3 
#> 6 AUS    2439  6.02
#> # ℹ 99 more rows
…
n()
#> Error in `n()`:
#> ! Must only be used inside data-masking verbs like `mutate()`,
#>   `filter()`, and `group_by()`.

유용하게 사용할 수 있는 n()과 count()의 몇 가지 변형이 있습니다:

n_distinct(x)는 하나 이상의 변수의 고유한(unique) 값의 수를 셉니다. 예를 들어 어떤 목적지가 가장 많은 항공사에 의해 운항되는지 파악할 수 있습니다:

flights |> 
  group_by(dest) |> 
  summarize(carriers = n_distinct(carrier)) |> 
  arrange(desc(carriers))
#> # A tibble: 105 × 2
#>   dest  carriers
#>   <chr>    <int>
#> 1 ATL          7
#> 2 BOS          7
#> 3 CLT          7
#> 4 ORD          7
#> 5 TPA          7
#> 6 AUS          6
#> # ℹ 99 more rows

가중 개수는 합계입니다. 예를 들어 각 비행기가 비행한 마일 수를 “셀” 수 있습니다:

flights |> 
  group_by(tailnum) |> 
  summarize(miles = sum(distance))
#> # A tibble: 4,044 × 2
#>   tailnum  miles
#>   <chr>    <dbl>
#> 1 D942DN    3418
#> 2 N0EGMQ  250866
#> 3 N10156  115966
#> 4 N102UW   25722
#> 5 N103US   24619
#> 6 N104UW   25157
#> # ℹ 4,038 more rows

가중 개수는 흔한 문제이므로 count()에는 동일한 작업을 수행하는 wt 인수가 있습니다:

flights |> count(tailnum, wt = distance)

sum()과 is.na()를 결합하여 결측값을 셀 수 있습니다. flights 데이터셋에서 이것은 취소된 항공편을 나타냅니다:

flights |> 
  group_by(dest) |> 
  summarize(n_cancelled = sum(is.na(dep_time))) 
#> # A tibble: 105 × 2
#>   dest  n_cancelled
#>   <chr>       <int>
#> 1 ABQ             0
#> 2 ACK             0
#> 3 ALB            20
#> 4 ANC             0
#> 5 ATL           317
#> 6 AUS            21
#> # ℹ 99 more rows
…
일반적으로 단일 숫자(즉, 길이 1의 벡터)만 재활용하고 싶지만 R은 더 짧은 길이의 벡터를 재활용합니다. 보통(항상은 아니지만) 긴 벡터가 짧은 벡터의 배수가 아닌 경우 경고를 제공합니다:

x * c(1, 2)
#> [1]  1  4 10 40
x * c(1, 2, 3)
#> Warning in x * c(1, 2, 3): longer object length is not a multiple of shorter
#> object length
#> [1]  1  4 30 20

이러한 재활용 규칙은 논리 비교(==, <, <=, >, >=, !=)에도 적용되며, 실수로 %in% 대신 ==를 사용하고 데이터 프레임의 행 수가 불행한 경우 놀라운 결과로 이어질 수 있습니다. 예를 들어 1월과 2월의 모든 항공편을 찾으려는 이 코드를 살펴보세요:

flights |> 
  filter(month == c(1, 2))
#> # A tibble: 25,977 × 19
#>    year month   day dep_time sched_dep_time dep_delay arr_time sched_arr_time
#>   <int> <int> <int>    <int>          <int>     <dbl>    <int>          <int>
#> 1  2013     1     1      517            515         2      830            819
#> 2  2013     1     1      542            540         2      923            850
#> 3  2013     1     1      554            600        -6      812            837
#> 4  2013     1     1      555            600        -5      913            854
#> 5  2013     1     1      557            600        -3      838            846
#> 6  2013     1     1      558            600        -2      849            851
#> # ℹ 25,971 more rows
#> # ℹ 11 more variables: arr_delay <dbl>, carrier <chr>, flight <int>, …
…
1:10 %/% 3
#>  [1] 0 0 1 1 1 2 2 2 3 3
1:10 %% 3
#>  [1] 1 2 0 1 2 0 1 2 0 1

모듈러 연산은 flights 데이터셋에 편리합니다. sched_dep_time 변수를 hour와 minute로 푸는 데 사용할 수 있기 때문입니다:

flights |> 
  mutate(
    hour = sched_dep_time %/% 100,
    minute = sched_dep_time %% 100,
    .keep = "used"
  )
#> # A tibble: 336,776 × 3
#>   sched_dep_time  hour minute
#>            <int> <dbl>  <dbl>
#> 1            515     5     15
#> 2            529     5     29
#> 3            540     5     40
#> 4            545     5     45
#> 5            600     6      0
#> 6            558     5     58
#> # ℹ 336,770 more rows
…
기본 R의 rank()에 적절한 ties.method 인수를 선택하여 동일한 결과를 많이 얻을 수 있습니다. 아마도 NA를 NA로 유지하려면 na.last = "keep"을 설정하고 싶을 것입니다.

row_number()는 dplyr 동사 내부에서 인수 없이 사용할 수도 있습니다. 이 경우 “현재” 행의 번호를 제공합니다. %% 또는 %/%와 결합하면 데이터를 비슷한 크기의 그룹으로 나누는 유용한 도구가 될 수 있습니다:

df <- tibble(id = 1:10)

df |> 
  mutate(
    row0 = row_number() - 1,
    three_groups = row0 %% 3,
    three_in_each_group = row0 %/% 3
  )
#> # A tibble: 10 × 4
#>      id  row0 three_groups three_in_each_group
#>   <int> <dbl>        <dbl>               <dbl>
#> 1     1     0            0                   0
#> 2     2     1            1                   0
#> 3     3     2            2                   0
#> 4     4     3            0                   1
#> 5     5     4            1                   1
#> 6     6     5            2                   1
#> # ℹ 4 more rows
…
때로는 이벤트가 발생할 때마다 새 그룹을 시작하고 싶을 때가 있습니다. 예를 들어 웹사이트 데이터를 볼 때 이벤트를 세션으로 나누고 싶은데, 마지막 활동 이후 x분 이상의 간격이 있은 후 새 세션을 시작하는 것이 일반적입니다. 예를 들어 누군가가 웹사이트를 방문한 시간이 있다고 상상해 보세요:

events <- tibble(
  time = c(0, 1, 2, 3, 5, 10, 12, 15, 17, 19, 20, 27, 28, 30)
)

그리고 각 이벤트 사이의 시간을 계산하고 자격을 갖출 만큼 충분히 큰 간격이 있는지 파악했습니다:

events <- events |> 
  mutate(
    diff = time - lag(time, default = first(time)),
    has_gap = diff >= 5
  )
events
#> # A tibble: 14 × 3
#>    time  diff has_gap
#>   <dbl> <dbl> <lgl>  
#> 1     0     0 FALSE  
#> 2     1     1 FALSE  
#> 3     2     1 FALSE  
#> 4     3     1 FALSE  
#> 5     5     2 FALSE  
#> 6    10     5 TRUE   
#> # ℹ 8 more rows

하지만 그 논리형 벡터에서 어떻게 group_by()할 수 있는 것으로 갈 수 있을까요? Section 13.4.7 의 cumsum()이 구해주러 옵니다. 갭, 즉 has_gap이 TRUE이면 group이 1씩 증가하기 때문입니다(Section 12.4.2):

events |> mutate(
  group = cumsum(has_gap)
)
#> # A tibble: 14 × 4
#>    time  diff has_gap group
#>   <dbl> <dbl> <lgl>   <int>
#> 1     0     0 FALSE       0
#> 2     1     1 FALSE       0
#> 3     2     1 FALSE       0
#> 4     3     1 FALSE       0
#> 5     5     2 FALSE       0
#> 6    10     5 TRUE        1
#> # ℹ 8 more rows

그룹화 변수를 만드는 또 다른 접근 방식은 consecutive_id()로, 인수 중 하나가 변경될 때마다 새 그룹을 시작합니다. 예를 들어 이 stackoverflow 질문에서 영감을 받아 반복되는 값이 많은 데이터 프레임이 있다고 상상해 보세요:

df <- tibble(
  x = c("a", "a", "a", "b", "c", "c", "d", "e", "a", "a", "b", "b"),
  y = c(1, 2, 3, 2, 4, 1, 3, 9, 4, 8, 10, 199)
)

반복되는 각 x의 첫 번째 행을 유지하려면 group_by(), consecutive_id(), slice_head()를 사용할 수 있습니다:

df |> 
  group_by(id = consecutive_id(x)) |> 
  slice_head(n = 1)
#> # A tibble: 7 × 3
#> # Groups:   id [7]
#>   x         y    id
#>   <chr> <dbl> <int>
#> 1 a         1     1
#> 2 b         2     2
#> 3 c         4     3
#> 4 d         3     4
#> 5 e         9     5
#> 6 a         4     6
#> # ℹ 1 more row
…
13.6.2 최소, 최대 및 분위수

중심 이외의 위치에 관심이 있다면 어떻게 해야 할까요? min()과 max()는 가장 큰 값과 가장 작은 값을 제공합니다. 또 다른 강력한 도구는 중앙값의 일반화인 quantile()입니다. quantile(x, 0.25)는 값의 25%보다 큰 x 값을 찾고, quantile(x, 0.5)는 중앙값과 동일하며, quantile(x, 0.95)는 값의 95%보다 큰 값을 찾습니다.

flights 데이터의 경우 가장 많이 지연된 항공편의 5%는 매우 극단적일 수 있으므로 최대값보다는 지연의 95% 분위수를 보고 싶을 수 있습니다.

flights |>
  group_by(year, month, day) |>
  summarize(
    max = max(dep_delay, na.rm = TRUE),
    q95 = quantile(dep_delay, 0.95, na.rm = TRUE),
    .groups = "drop"
  )
#> # A tibble: 365 × 5
#>    year month   day   max   q95
#>   <int> <int> <int> <dbl> <dbl>
#> 1  2013     1     1   853  70.1
#> 2  2013     1     2   379  85  
#> 3  2013     1     3   291  68  
#> 4  2013     1     4   288  60  
#> 5  2013     1     5   327  41  
#> 6  2013     1     6   202  51  
#> # ℹ 359 more rows
…
수치형 벡터에 유용하지만 다른 모든 유형의 값과도 작동하는 요약 유형이 하나 더 있습니다. 특정 위치의 값을 추출하는 것입니다: first(x), last(x), nth(x, n).

예를 들어 매일 첫 번째, 다섯 번째, 마지막 출발을 찾을 수 있습니다:

flights |> 
  group_by(year, month, day) |> 
  summarize(
    first_dep = first(dep_time, na_rm = TRUE), 
    fifth_dep = nth(dep_time, 5, na_rm = TRUE),
    last_dep = last(dep_time, na_rm = TRUE)
  )
#> `summarise()` has grouped output by 'year', 'month'. You can override using
#> the `.groups` argument.
#> # A tibble: 365 × 6
#> # Groups:   year, month [12]
#>    year month   day first_dep fifth_dep last_dep
#>   <int> <int> <int>     <int>     <int>    <int>
#> 1  2013     1     1       517       554     2356
#> 2  2013     1     2        42       535     2354
#> 3  2013     1     3        32       520     2349
#> 4  2013     1     4        25       531     2358
#> 5  2013     1     5        14       534     2357
#> 6  2013     1     6        16       555     2355
#> # ℹ 359 more rows

(참고: dplyr 함수는 _를 사용하여 함수 및 인수 이름의 구성 요소를 구분하므로 이러한 함수는 na.rm 대신 na_rm을 사용합니다.)

Section 27.2 에서 다시 다룰 [에 익숙하다면 이러한 함수가 필요한지 궁금할 수 있습니다. 세 가지 이유가 있습니다: default 인수를 사용하면 지정된 위치가 존재하지 않는 경우 기본값을 제공할 수 있고, order_by 인수를 사용하면 행의 순서를 로컬에서 재정의할 수 있으며, na_rm 인수를 사용하면 결측값을 삭제할 수 있습니다.

위치에서 값을 추출하는 것은 순위에 대한 필터링을 보완합니다. 필터링은 각 관측값이 별도의 행에 있는 모든 변수를 제공합니다:

flights |> 
  group_by(year, month, day) |> 
  mutate(r = min_rank(sched_dep_time)) |> 
  filter(r %in% c(1, max(r)))
#> # A tibble: 1,195 × 20
#> # Groups:   year, month, day [365]
#>    year month   day dep_time sched_dep_time dep_delay arr_time sched_arr_time
#>   <int> <int> <int>    <int>          <int>     <dbl>    <int>          <int>
#> 1  2013     1     1      517            515         2      830            819
#> 2  2013     1     1     2353           2359        -6      425            445
#> 3  2013     1     1     2353           2359        -6      418            442
#> 4  2013     1     1     2356           2359        -3      425            437
#> 5  2013     1     2       42           2359        43      518            442
#> 6  2013     1     2      458            500        -2      703            650
#> # ℹ 1,189 more rows
#> # ℹ 12 more variables: arr_delay <dbl>, carrier <chr>, flight <int>, …
…
