23 계층적 데이터 – R for Data Science (2e)
…
이 티블에는 gh_repos의 각 자식에 대해 하나씩 6개의 행이 포함되어 있습니다. 각 행에는 26개 또는 30개의 행이 있는 이름이 없는 리스트가 포함되어 있습니다. 이들은 이름이 없으므로 각 자식을 자체 행에 넣기 위해 unnest_longer()로 시작하겠습니다:

repos |> 
  unnest_longer(json)
#> # A tibble: 176 × 1
#>   json             
#>   <list>           
#> 1 <named list [68]>
#> 2 <named list [68]>
#> 3 <named list [68]>
#> 4 <named list [68]>
#> 5 <named list [68]>
#> 6 <named list [68]>
#> # ℹ 170 more rows

처음에는 상황이 개선되지 않은 것처럼 보일 수 있습니다: 행은 더 많아졌지만(6개 대신 176개) json의 각 요소는 여전히 리스트입니다. 하지만 중요한 차이점이 있습니다: 이제 각 요소가 이름이 있는 리스트이므로 unnest_wider()를 사용하여 각 요소를 자체 열에 넣을 수 있습니다:

repos |> 
  unnest_longer(json) |> 
  unnest_wider(json) 
#> # A tibble: 176 × 68
#>         id name        full_name         owner        private html_url       
#>      <int> <chr>       <chr>             <list>       <lgl>   <chr>          
#> 1 61160198 after       gaborcsardi/after <named list> FALSE   https://github…
#> 2 40500181 argufy      gaborcsardi/argu… <named list> FALSE   https://github…
#> 3 36442442 ask         gaborcsardi/ask   <named list> FALSE   https://github…
#> 4 34924886 baseimports gaborcsardi/base… <named list> FALSE   https://github…
#> 5 61620661 citest      gaborcsardi/cite… <named list> FALSE   https://github…
#> 6 33907457 clisymbols  gaborcsardi/clis… <named list> FALSE   https://github…
#> # ℹ 170 more rows
#> # ℹ 62 more variables: description <chr>, fork <lgl>, url <chr>, …
…
repos |> 
  unnest_longer(json) |> 
  unnest_wider(json) |> 
  names() |> 
  head(10)
#>  [1] "id"          "name"        "full_name"   "owner"       "private"    
#>  [6] "html_url"    "description" "fork"        "url"         "forks_url"

흥미로워 보이는 것 몇 개를 뽑아보겠습니다:

repos |> 
  unnest_longer(json) |> 
  unnest_wider(json) |> 
  select(id, full_name, owner, description)
#> # A tibble: 176 × 4
#>         id full_name               owner             description             
#>      <int> <chr>                   <list>            <chr>                   
#> 1 61160198 gaborcsardi/after       <named list [17]> Run Code in the Backgro…
#> 2 40500181 gaborcsardi/argufy      <named list [17]> Declarative function ar…
#> 3 36442442 gaborcsardi/ask         <named list [17]> Friendly CLI interactio…
#> 4 34924886 gaborcsardi/baseimports <named list [17]> Do we get warnings for …
#> 5 61620661 gaborcsardi/citest      <named list [17]> Test R package and repo…
#> 6 33907457 gaborcsardi/clisymbols  <named list [17]> Unicode symbols for CLI…
#> # ℹ 170 more rows
…
이런, 이 리스트 열에도 id 열이 포함되어 있고 동일한 데이터 프레임에 두 개의 id 열을 가질 수 없습니다. 제안된 대로 names_sep을 사용하여 문제를 해결해 보겠습니다:

repos |> 
  unnest_longer(json) |> 
  unnest_wider(json) |> 
  select(id, full_name, owner, description) |> 
  unnest_wider(owner, names_sep = "_")
#> # A tibble: 176 × 20
#>         id full_name               owner_login owner_id owner_avatar_url     
#>      <int> <chr>                   <chr>          <int> <chr>                
#> 1 61160198 gaborcsardi/after       gaborcsardi   660288 https://avatars.gith…
#> 2 40500181 gaborcsardi/argufy      gaborcsardi   660288 https://avatars.gith…
#> 3 36442442 gaborcsardi/ask         gaborcsardi   660288 https://avatars.gith…
#> 4 34924886 gaborcsardi/baseimports gaborcsardi   660288 https://avatars.gith…
#> 5 61620661 gaborcsardi/citest      gaborcsardi   660288 https://avatars.gith…
#> 6 33907457 gaborcsardi/clisymbols  gaborcsardi   660288 https://avatars.gith…
#> # ℹ 170 more rows
#> # ℹ 15 more variables: owner_gravatar_id <chr>, owner_url <chr>, …

이렇게 하면 또 다른 넓은 데이터셋이 생성되지만, owner에 저장소를 “소유”한 사람에 대한 많은 추가 데이터가 포함되어 있음을 알 수 있습니다.

23.4.2 관계형 데이터

중첩된 데이터는 때때로 우리가 보통 여러 데이터 프레임에 분산시킬 데이터를 나타내는 데 사용됩니다. 예를 들어 왕좌의 게임(Game of Thrones) 책과 TV 시리즈에 등장하는 인물에 대한 데이터가 포함된 got_chars를 예로 들어보겠습니다. gh_repos와 마찬가지로 리스트이므로 먼저 티블의 리스트 열로 변환하는 것으로 시작합니다:

chars <- tibble(json = got_chars)
chars
#> # A tibble: 30 × 1
#>   json             
#>   <list>           
#> 1 <named list [18]>
#> 2 <named list [18]>
#> 3 <named list [18]>
#> 4 <named list [18]>
#> 5 <named list [18]>
#> 6 <named list [18]>
#> # ℹ 24 more rows

json 열에는 이름이 있는 요소가 포함되어 있으므로 먼저 넓게 만드는 것으로 시작하겠습니다:

chars |> 
  unnest_wider(json)
#> # A tibble: 30 × 18
#>   url                    id name            gender culture    born           
#>   <chr>               <int> <chr>           <chr>  <chr>      <chr>          
#> 1 https://www.anapio…  1022 Theon Greyjoy   Male   "Ironborn" "In 278 AC or …
#> 2 https://www.anapio…  1052 Tyrion Lannist… Male   ""         "In 273 AC, at…
#> 3 https://www.anapio…  1074 Victarion Grey… Male   "Ironborn" "In 268 AC or …
#> 4 https://www.anapio…  1109 Will            Male   ""         ""             
#> 5 https://www.anapio…  1166 Areo Hotah      Male   "Norvoshi" "In 257 AC or …
#> 6 https://www.anapio…  1267 Chett           Male   ""         "At Hag's Mire"
#> # ℹ 24 more rows
#> # ℹ 12 more variables: died <chr>, alive <lgl>, titles <list>, …

그리고 읽기 쉽게 몇 개의 열을 선택합니다:

characters <- chars |> 
  unnest_wider(json) |> 
  select(id, name, gender, culture, born, died, alive)
characters
#> # A tibble: 30 × 7
#>      id name              gender culture    born              died           
#>   <int> <chr>             <chr>  <chr>      <chr>             <chr>          
#> 1  1022 Theon Greyjoy     Male   "Ironborn" "In 278 AC or 27… ""             
#> 2  1052 Tyrion Lannister  Male   ""         "In 273 AC, at C… ""             
#> 3  1074 Victarion Greyjoy Male   "Ironborn" "In 268 AC or be… ""             
#> 4  1109 Will              Male   ""         ""                "In 297 AC, at…
#> 5  1166 Areo Hotah        Male   "Norvoshi" "In 257 AC or be… ""             
#> 6  1267 Chett             Male   ""         "At Hag's Mire"   "In 299 AC, at…
#> # ℹ 24 more rows
#> # ℹ 1 more variable: alive <lgl>

이 데이터셋에는 많은 리스트 열도 포함되어 있습니다:

chars |> 
  unnest_wider(json) |> 
  select(id, where(is.list))
#> # A tibble: 30 × 8
#>      id titles    aliases    allegiances books     povBooks tvSeries playedBy
#>   <int> <list>    <list>     <list>      <list>    <list>   <list>   <list>  
#> 1  1022 <chr [2]> <chr [4]>  <chr [1]>   <chr [3]> <chr>    <chr>    <chr>   
#> 2  1052 <chr [2]> <chr [11]> <chr [1]>   <chr [2]> <chr>    <chr>    <chr>   
#> 3  1074 <chr [2]> <chr [1]>  <chr [1]>   <chr [3]> <chr>    <chr>    <chr>   
#> 4  1109 <chr [1]> <chr [1]>  <NULL>      <chr [1]> <chr>    <chr>    <chr>   
#> 5  1166 <chr [1]> <chr [1]>  <chr [1]>   <chr [3]> <chr>    <chr>    <chr>   
#> 6  1267 <chr [1]> <chr [1]>  <NULL>      <chr [2]> <chr>    <chr>    <chr>   
#> # ℹ 24 more rows

titles 열을 살펴보겠습니다. 이름이 없는 리스트 열이므로 행으로 중첩 해제합니다:

chars |> 
  unnest_wider(json) |> 
  select(id, titles) |> 
  unnest_longer(titles)
#> # A tibble: 59 × 2
#>      id titles                                              
#>   <int> <chr>                                               
#> 1  1022 Prince of Winterfell                                
#> 2  1022 Lord of the Iron Islands (by law of the green lands)
#> 3  1052 Acting Hand of the King (former)                    
#> 4  1052 Master of Coin (former)                             
#> 5  1074 Lord Captain of the Iron Fleet                      
#> 6  1074 Master of the Iron Victory                          
#> # ℹ 53 more rows

이 데이터는 필요에 따라 인물 데이터에 조인하기 쉬울 것이기 때문에 자체 테이블에서 볼 수 있을 것이라고 예상할 수 있습니다. 그렇게 해보겠습니다. 약간의 정리가 필요합니다: 빈 문자열을 포함하는 행을 제거하고, 각 행에 이제 단일 제목만 포함되므로 titles를 title로 이름을 바꿉니다.

titles <- chars |> 
  unnest_wider(json) |> 
  select(id, titles) |> 
  unnest_longer(titles) |> 
  filter(titles != "") |> 
  rename(title = titles)
titles
#> # A tibble: 52 × 2
#>      id title                                               
#>   <int> <chr>                                               
#> 1  1022 Prince of Winterfell                                
#> 2  1022 Lord of the Iron Islands (by law of the green lands)
#> 3  1052 Acting Hand of the King (former)                    
#> 4  1052 Master of Coin (former)                             
#> 5  1074 Lord Captain of the Iron Fleet                      
#> 6  1074 Master of the Iron Victory                          
#> # ℹ 46 more rows
…
이렇게 하면 status와 results를 얻게 됩니다. 상태가 모두 OK이므로 상태 열은 삭제하겠습니다. 실제 분석에서는 status != "OK"인 모든 행을 캡처하고 무엇이 잘못되었는지 파악하고 싶을 것입니다. results는 하나 또는 두 개의 요소를 가진 이름이 없는 리스트이므로(이유는 곧 알게 될 것입니다) 행으로 중첩 해제합니다:

gmaps_cities |> 
  unnest_wider(json) |> 
  select(-status) |> 
  unnest_longer(results)
#> # A tibble: 7 × 2
#>   city       results         
#>   <chr>      <list>          
#> 1 Houston    <named list [5]>
#> 2 Washington <named list [5]>
#> 3 Washington <named list [5]>
#> 4 New York   <named list [5]>
#> 5 Chicago    <named list [5]>
#> 6 Arlington  <named list [5]>
#> # ℹ 1 more row

이제 results는 이름이 있는 리스트이므로 unnest_wider()를 사용합니다:

locations <- gmaps_cities |> 
  unnest_wider(json) |> 
  select(-status) |> 
  unnest_longer(results) |> 
  unnest_wider(results)
locations
#> # A tibble: 7 × 6
#>   city       address_components formatted_address   geometry        
#>   <chr>      <list>             <chr>               <list>          
#> 1 Houston    <list [4]>         Houston, TX, USA    <named list [4]>
#> 2 Washington <list [2]>         Washington, USA     <named list [4]>
#> 3 Washington <list [4]>         Washington, DC, USA <named list [4]>
#> 4 New York   <list [3]>         New York, NY, USA   <named list [4]>
#> 5 Chicago    <list [4]>         Chicago, IL, USA    <named list [4]>
#> 6 Arlington  <list [4]>         Arlington, TX, USA  <named list [4]>
#> # ℹ 1 more row
#> # ℹ 2 more variables: place_id <chr>, types <list>

이제 왜 두 도시가 두 개의 결과를 얻었는지 알 수 있습니다: Washington은 워싱턴 주와 워싱턴 DC 모두와 일치했고, Arlington은 버지니아 주 알링턴과 텍사스 주 알링턴과 일치했습니다.

여기서부터 갈 수 있는 몇 가지 다른 방향이 있습니다. geometry 리스트 열에 저장된 일치 항목의 정확한 위치를 확인하고 싶을 수 있습니다:

locations |> 
  select(city, formatted_address, geometry) |> 
  unnest_wider(geometry)
#> # A tibble: 7 × 6
#>   city       formatted_address   bounds           location     location_type
#>   <chr>      <chr>               <list>           <list>       <chr>        
#> 1 Houston    Houston, TX, USA    <named list [2]> <named list> APPROXIMATE  
#> 2 Washington Washington, USA     <named list [2]> <named list> APPROXIMATE  
#> 3 Washington Washington, DC, USA <named list [2]> <named list> APPROXIMATE  
#> 4 New York   New York, NY, USA   <named list [2]> <named list> APPROXIMATE  
#> 5 Chicago    Chicago, IL, USA    <named list [2]> <named list> APPROXIMATE  
#> 6 Arlington  Arlington, TX, USA  <named list [2]> <named list> APPROXIMATE  
#> # ℹ 1 more row
#> # ℹ 1 more variable: viewport <list>

그러면 새로운 bounds(직사각형 영역)와 location(점)을 얻게 됩니다. location을 중첩 해제하여 위도(lat)와 경도(lng)를 볼 수 있습니다:

locations |> 
  select(city, formatted_address, geometry) |> 
  unnest_wider(geometry) |> 
  unnest_wider(location)
#> # A tibble: 7 × 7
#>   city       formatted_address   bounds             lat    lng location_type
#>   <chr>      <chr>               <list>           <dbl>  <dbl> <chr>        
#> 1 Houston    Houston, TX, USA    <named list [2]>  29.8  -95.4 APPROXIMATE  
#> 2 Washington Washington, USA     <named list [2]>  47.8 -121.  APPROXIMATE  
#> 3 Washington Washington, DC, USA <named list [2]>  38.9  -77.0 APPROXIMATE  
#> 4 New York   New York, NY, USA   <named list [2]>  40.7  -74.0 APPROXIMATE  
#> 5 Chicago    Chicago, IL, USA    <named list [2]>  41.9  -87.6 APPROXIMATE  
#> 6 Arlington  Arlington, TX, USA  <named list [2]>  32.7  -97.1 APPROXIMATE  
#> # ℹ 1 more row
#> # ℹ 1 more variable: viewport <list>

경계(bounds)를 추출하려면 몇 단계가 더 필요합니다:

locations |> 
  select(city, formatted_address, geometry) |> 
  unnest_wider(geometry) |> 
  # 관심 있는 변수에 집중
  select(!location:viewport) |>
  unnest_wider(bounds)
#> # A tibble: 7 × 4
#>   city       formatted_address   northeast        southwest       
#>   <chr>      <chr>               <list>           <list>          
#> 1 Houston    Houston, TX, USA    <named list [2]> <named list [2]>
#> 2 Washington Washington, USA     <named list [2]> <named list [2]>
#> 3 Washington Washington, DC, USA <named list [2]> <named list [2]>
#> 4 New York   New York, NY, USA   <named list [2]> <named list [2]>
#> 5 Chicago    Chicago, IL, USA    <named list [2]> <named list [2]>
#> 6 Arlington  Arlington, TX, USA  <named list [2]> <named list [2]>
#> # ℹ 1 more row

그런 다음 southwest와 northeast(직사각형의 모서리)의 이름을 변경하여 names_sep을 사용하여 짧으면서도 기억하기 쉬운 이름을 만들 수 있습니다:

locations |> 
  select(city, formatted_address, geometry) |> 
  unnest_wider(geometry) |> 
  select(!location:viewport) |>
  unnest_wider(bounds) |> 
  rename(ne = northeast, sw = southwest) |> 
  unnest_wider(c(ne, sw), names_sep = "_") 
#> # A tibble: 7 × 6
#>   city       formatted_address   ne_lat ne_lng sw_lat sw_lng
#>   <chr>      <chr>                <dbl>  <dbl>  <dbl>  <dbl>
#> 1 Houston    Houston, TX, USA      30.1  -95.0   29.5  -95.8
#> 2 Washington Washington, USA       49.0 -117.    45.5 -125. 
#> 3 Washington Washington, DC, USA   39.0  -76.9   38.8  -77.1
#> 4 New York   New York, NY, USA     40.9  -73.7   40.5  -74.3
#> 5 Chicago    Chicago, IL, USA      42.0  -87.5   41.6  -87.9
#> 6 Arlington  Arlington, TX, USA    32.8  -97.0   32.6  -97.2
#> # ℹ 1 more row
…
