15 정규 표현식 (Regular expressions) – R for Data Science (2e)
…
이제 정규 표현식의 기초를 익혔으니, stringr 및 tidyr 함수들과 함께 사용해 봅시다. 다음 섹션에서는 일치 항목의 존재 여부 감지, 일치 횟수 계산, 일치 항목을 고정 텍스트로 교체, 패턴을 사용한 텍스트 추출 방법을 배울 것입니다.

15.3.1 일치 감지 (Detect matches)

str_detect()는 패턴이 문자 벡터의 요소와 일치하면 TRUE, 그렇지 않으면 FALSE인 논리형 벡터를 반환합니다:

str_detect(c("a", "b", "c"), "[aeiou]")
#> [1]  TRUE FALSE FALSE

str_detect()는 초기 벡터와 길이가 같은 논리형 벡터를 반환하므로 filter()와 잘 어울립니다. 예를 들어, 이 코드는 소문자 “x”가 포함된 가장 인기 있는 이름들을 찾습니다:

babynames |> 
  filter(str_detect(name, "x")) |> 
  count(name, wt = n, sort = TRUE)
#> # A tibble: 974 × 2
#>   name           n
#>   <chr>      <int>
#> 1 Alexander 665492
#> 2 Alexis    399551
#> 3 Alex      278705
#> 4 Alexandra 232223
#> 5 Max       148787
#> 6 Alexa     123032
#> # ℹ 968 more rows
…
str_count("abababa", "aba")
#> [1] 2
str_view("abababa", "aba")
#> [1] │ <aba>b<aba>

str_count()를 mutate()와 함께 사용하는 것은 자연스럽습니다. 다음 예제는 str_count()와 문자 클래스를 사용하여 각 이름의 모음과 자음 수를 계산합니다.

babynames |> 
  count(name) |> 
  mutate(
    vowels = str_count(name, "[aeiou]"),
    consonants = str_count(name, "[^aeiou]")
  )
#> # A tibble: 97,310 × 4
#>   name          n vowels consonants
#>   <chr>     <int>  <int>      <int>
#> 1 Aaban        10      2          3
#> 2 Aabha         5      2          3
#> 3 Aabid         2      2          3
#> 4 Aabir         1      2          3
#> 5 Aabriella     5      4          5
#> 6 Aada          1      2          2
#> # ℹ 97,304 more rows
…
str_to_lower()를 사용하여 이름을 소문자로 변환합니다: str_count(str_to_lower(name), "[aeiou]").

이러한 다양한 접근 방식은 문자열 작업을 할 때 꽤 일반적입니다. 패턴을 더 복잡하게 만들거나 문자열에 전처리를 수행하는 등 목표에 도달하는 방법은 종종 여러 가지가 있습니다. 한 가지 접근 방식으로 막히면 기어를 바꿔 다른 관점에서 문제를 해결하는 것이 종종 유용할 수 있습니다.

이 경우 이름에 두 가지 함수를 적용하고 있으므로 먼저 변환하는 것이 더 쉽다고 생각합니다:

babynames |> 
  count(name) |> 
  mutate(
    name = str_to_lower(name),
    vowels = str_count(name, "[aeiou]"),
    consonants = str_count(name, "[^aeiou]")
  )
#> # A tibble: 97,310 × 4
#>   name          n vowels consonants
#>   <chr>     <int>  <int>      <int>
#> 1 aaban        10      3          2
#> 2 aabha         5      3          2
#> 3 aabid         2      3          2
#> 4 aabir         1      3          2
#> 5 aabriella     5      5          4
#> 6 aada          1      3          1
#> # ℹ 97,304 more rows
…
separate_wider_regex()를 사용하여 이 데이터를 추출하려면 각 조각과 일치하는 정규 표현식 시퀀스를 구성하기만 하면 됩니다. 해당 조각의 내용이 출력에 나타나게 하려면 이름을 지정합니다:

df |> 
  separate_wider_regex(
    str,
    patterns = c(
      "<", 
      name = "[A-Za-z]+", 
      ">-", 
      gender = ".",
      "_",
      age = "[0-9]+"
    )
  )
#> # A tibble: 7 × 3
#>   name    gender age  
#>   <chr>   <chr>  <chr>
#> 1 Sheryl  F      34   
#> 2 Kisha   F      45   
#> 3 Brandon N      33   
#> 4 Sharon  F      38   
#> 5 Penny   F      58   
#> 6 Justin  M      41   
#> # ℹ 1 more row
…
티블(tibble)로 변환하고 열 이름을 지정할 수 있습니다:

sentences |> 
  str_match("the (\\w+) (\\w+)") |> 
  as_tibble(.name_repair = "minimal") |> 
  set_names("match", "word1", "word2")
#> # A tibble: 720 × 3
#>   match             word1  word2 
#>   <chr>             <chr>  <chr> 
#> 1 the smooth planks smooth planks
#> 2 the sheet to      sheet  to    
#> 3 the depth of      depth  of    
#> 4 <NA>              <NA>   <NA>  
#> 5 <NA>              <NA>   <NA>  
#> 6 <NA>              <NA>   <NA>  
#> # ℹ 714 more rows
…
