20 스프레드시트 – R for Data Science (2e)
…
Figure 20.2: 세 개의 워크시트가 포함된 Excel의 penguins.xlsx라는 스프레드시트.

read_excel()의 sheet 인수를 사용하여 스프레드시트에서 단일 워크시트를 읽을 수 있습니다. 지금까지 의존해 온 기본값은 첫 번째 시트입니다.

read_excel("data/penguins.xlsx", sheet = "Torgersen Island")
#> # A tibble: 52 × 8
#>   species island    bill_length_mm     bill_depth_mm      flipper_length_mm
#>   <chr>   <chr>     <chr>              <chr>              <chr>            
#> 1 Adelie  Torgersen 39.1               18.7               181              
#> 2 Adelie  Torgersen 39.5               17.399999999999999 186              
#> 3 Adelie  Torgersen 40.299999999999997 18                 195              
#> 4 Adelie  Torgersen NA                 NA                 NA               
#> 5 Adelie  Torgersen 36.700000000000003 19.3               193              
#> 6 Adelie  Torgersen 39.299999999999997 20.6               190              
#> # ℹ 46 more rows
#> # ℹ 3 more variables: body_mass_g <chr>, sex <chr>, year <dbl>

숫자 데이터가 포함된 것으로 보이는 일부 변수는 문자열 "NA"가 실제 NA로 인식되지 않아 문자로 읽힙니다.

penguins_torgersen <- read_excel("data/penguins.xlsx", sheet = "Torgersen Island", na = "NA")

penguins_torgersen
#> # A tibble: 52 × 8
#>   species island    bill_length_mm bill_depth_mm flipper_length_mm
#>   <chr>   <chr>              <dbl>         <dbl>             <dbl>
#> 1 Adelie  Torgersen           39.1          18.7               181
#> 2 Adelie  Torgersen           39.5          17.4               186
#> 3 Adelie  Torgersen           40.3          18                 195
#> 4 Adelie  Torgersen           NA            NA                  NA
#> 5 Adelie  Torgersen           36.7          19.3               193
#> 6 Adelie  Torgersen           39.3          20.6               190
#> # ℹ 46 more rows
#> # ℹ 3 more variables: body_mass_g <dbl>, sex <chr>, year <dbl>
…
이 경우 전체 펭귄 데이터셋은 스프레드시트의 세 워크시트에 분산되어 있습니다. 각 워크시트에는 동일한 수의 열이 있지만 행 수는 다릅니다.

dim(penguins_torgersen)
#> [1] 52  8
dim(penguins_biscoe)
#> [1] 168   8
dim(penguins_dream)
#> [1] 124   8

bind_rows()로 합칠 수 있습니다.

penguins <- bind_rows(penguins_torgersen, penguins_biscoe, penguins_dream)
penguins
#> # A tibble: 344 × 8
#>   species island    bill_length_mm bill_depth_mm flipper_length_mm
#>   <chr>   <chr>              <dbl>         <dbl>             <dbl>
#> 1 Adelie  Torgersen           39.1          18.7               181
#> 2 Adelie  Torgersen           39.5          17.4               186
#> 3 Adelie  Torgersen           40.3          18                 195
#> 4 Adelie  Torgersen           NA            NA                  NA
#> 5 Adelie  Torgersen           36.7          19.3               193
#> 6 Adelie  Torgersen           39.3          20.6               190
#> # ℹ 338 more rows
#> # ℹ 3 more variables: body_mass_g <dbl>, sex <chr>, year <dbl>
…
Figure 20.3: Excel의 deaths.xlsx라는 스프레드시트.

이 스프레드시트는 readxl 패키지에서 제공하는 예제 스프레드시트 중 하나입니다. readxl_example() 함수를 사용하여 패키지가 설치된 디렉터리에서 시스템의 스프레드시트를 찾을 수 있습니다. 이 함수는 평소와 같이 read_excel()에서 사용할 수 있는 스프레드시트의 경로를 반환합니다.

deaths_path <- readxl_example("deaths.xlsx")
deaths <- read_excel(deaths_path)
#> New names:
#> • `` -> `...2`
#> • `` -> `...3`
#> • `` -> `...4`
#> • `` -> `...5`
#> • `` -> `...6`
deaths
#> # A tibble: 18 × 6
#>   `Lots of people`    ...2       ...3  ...4     ...5          ...6           
#>   <chr>               <chr>      <chr> <chr>    <chr>         <chr>          
#> 1 simply cannot resi… <NA>       <NA>  <NA>     <NA>          some notes     
#> 2 at                  the        top   <NA>     of            their spreadsh…
#> 3 or                  merging    <NA>  <NA>     <NA>          cells          
#> 4 Name                Profession Age   Has kids Date of birth Date of death  
#> 5 David Bowie         musician   69    TRUE     17175         42379          
#> 6 Carrie Fisher       actor      60    TRUE     20749         42731          
#> # ℹ 12 more rows

상위 3개 행과 하위 4개 행은 데이터 프레임의 일부가 아닙니다. skip 및 n_max 인수를 사용하여 이러한 관련 없는 행을 제거할 수 있지만 셀 범위(cell ranges)를 사용하는 것이 좋습니다. Excel에서 왼쪽 상단 셀은 A1입니다. 열을 따라 오른쪽으로 이동하면 셀 레이블이 알파벳 순으로 이동합니다. 즉, B1, C1 등입니다. 그리고 열을 따라 아래로 이동하면 셀 레이블의 숫자가 증가합니다. 즉, A2, A3 등입니다.

여기서 우리가 읽으려는 데이터는 셀 A5에서 시작하여 셀 F15에서 끝납니다. 스프레드시트 표기법으로 이것은 A5:F15이며 range 인수에 제공합니다:

read_excel(deaths_path, range = "A5:F15")
#> # A tibble: 10 × 6
#>   Name          Profession   Age `Has kids` `Date of birth`    
#>   <chr>         <chr>      <dbl> <lgl>      <dttm>             
#> 1 David Bowie   musician      69 TRUE       1947-01-08 00:00:00
#> 2 Carrie Fisher actor         60 TRUE       1956-10-21 00:00:00
#> 3 Chuck Berry   musician      90 TRUE       1926-10-18 00:00:00
#> 4 Bill Paxton   actor         61 TRUE       1955-05-17 00:00:00
#> 5 Prince        musician      57 TRUE       1958-06-07 00:00:00
#> 6 Alan Rickman  actor         69 FALSE      1946-02-21 00:00:00
#> # ℹ 4 more rows
#> # ℹ 1 more variable: `Date of death` <dttm>
…
여기서 열 유형을 짧은 코드를 사용하여 약간 다르게 정의했음에 유의하세요. 예를 들어 “dcccc”는 “double, character, character, character, character”를 나타냅니다.

Google 스프레드시트에서 개별 시트를 읽을 수도 있습니다. penguins Google 스프레드시트에서 “Torgersen Island” 시트를 읽어보겠습니다:

penguins_sheet_id <- "1aFu8lnD_g0yjF5O-K6SFgSEWiHPpgvFCF0NY9D6LXnY"
read_sheet(penguins_sheet_id, sheet = "Torgersen Island")
#> ✔ Reading from penguins.
#> ✔ Range ''Torgersen Island''.
#> # A tibble: 52 × 8
#>   species island    bill_length_mm bill_depth_mm flipper_length_mm
#>   <chr>   <chr>     <list>         <list>        <list>           
#> 1 Adelie  Torgersen <dbl [1]>      <dbl [1]>     <dbl [1]>        
#> 2 Adelie  Torgersen <dbl [1]>      <dbl [1]>     <dbl [1]>        
#> 3 Adelie  Torgersen <dbl [1]>      <dbl [1]>     <dbl [1]>        
#> 4 Adelie  Torgersen <chr [1]>      <chr [1]>     <chr [1]>        
#> 5 Adelie  Torgersen <dbl [1]>      <dbl [1]>     <dbl [1]>        
#> 6 Adelie  Torgersen <dbl [1]>      <dbl [1]>     <dbl [1]>        
#> # ℹ 46 more rows
#> # ℹ 3 more variables: body_mass_g <list>, sex <chr>, year <dbl>

sheet_names()를 사용하여 Google 스프레드시트 내의 모든 시트 목록을 얻을 수 있습니다:

sheet_names(penguins_sheet_id)
#> [1] "Torgersen Island" "Biscoe Island"    "Dream Island"

마지막으로 read_excel()과 마찬가지로 read_sheet()에서 range를 정의하여 Google 스프레드시트의 일부를 읽을 수 있습니다. 아래에서는 gs4_example() 함수를 사용하여 googlesheets4 패키지와 함께 제공되는 예제 Google 스프레드시트를 찾습니다.

deaths_url <- gs4_example("deaths")
deaths <- read_sheet(deaths_url, range = "A5:F15")
#> ✔ Reading from deaths.
#> ✔ Range A5:F15.
deaths
#> # A tibble: 10 × 6
#>   Name          Profession   Age `Has kids` `Date of birth`    
#>   <chr>         <chr>      <dbl> <lgl>      <dttm>             
#> 1 David Bowie   musician      69 TRUE       1947-01-08 00:00:00
#> 2 Carrie Fisher actor         60 TRUE       1956-10-21 00:00:00
#> 3 Chuck Berry   musician      90 TRUE       1926-10-18 00:00:00
#> 4 Bill Paxton   actor         61 TRUE       1955-05-17 00:00:00
#> 5 Prince        musician      57 TRUE       1958-06-07 00:00:00
#> 6 Alan Rickman  actor         69 FALSE      1946-02-21 00:00:00
#> # ℹ 4 more rows
#> # ℹ 1 more variable: `Date of death` <dttm>
…
