14 문자열 – R for Data Science (2e)
…
야생에서 separate_longer_position()을 보는 것은 더 드물지만, 일부 오래된 데이터셋은 각 문자가 값을 기록하는 데 사용되는 매우 간결한 형식을 사용합니다:

df2 <- tibble(x = c("1211", "131", "21"))
df2 |> 
  separate_longer_position(x, width = 1)
#> # A tibble: 9 × 1
#>   x    
#>   <chr>
#> 1 1    
#> 2 2    
#> 3 1    
#> 4 1    
#> 5 1    
#> 6 3    
#> # ℹ 3 more rows
…
이 섹션에서는 문자열 내의 개별 문자로 작업할 수 있는 함수를 소개합니다. 문자열의 길이를 찾고, 하위 문자열을 추출하고, 플롯과 테이블에서 긴 문자열을 처리하는 방법을 배웁니다.

14.5.1 길이

str_length()는 문자열의 문자 수를 알려줍니다:

str_length(c("a", "R for data science", NA))
#> [1]  1 18 NA

이것을 count()와 함께 사용하여 미국 아기 이름 길이의 분포를 찾은 다음 filter()와 함께 사용하여 가장 긴 이름(우연히 15자임)을 볼 수 있습니다7:

babynames |>
  count(length = str_length(name), wt = n)
#> # A tibble: 14 × 2
#>   length        n
#>    <int>    <int>
#> 1      2   338150
#> 2      3  8589596
#> 3      4 48506739
#> 4      5 87011607
#> 5      6 90749404
#> 6      7 72120767
#> # ℹ 8 more rows

babynames |> 
  filter(str_length(name) == 15) |> 
  count(name, wt = n, sort = TRUE)
#> # A tibble: 34 × 2
#>   name                n
#>   <chr>           <int>
#> 1 Franciscojavier   123
#> 2 Christopherjohn   118
#> 3 Johnchristopher   118
#> 4 Christopherjame   108
#> 5 Christophermich    52
#> 6 Ryanchristopher    45
#> # ℹ 28 more rows
…
문자열이 너무 짧아도 str_sub()는 실패하지 않습니다: 가능한 한 많이 반환합니다:

str_sub("a", 1, 5)
#> [1] "a"

str_sub()를 mutate()와 함께 사용하여 각 이름의 첫 글자와 마지막 글자를 찾을 수 있습니다:

babynames |> 
  mutate(
    first = str_sub(name, 1, 1),
    last = str_sub(name, -1, -1)
  )
#> # A tibble: 1,924,665 × 7
#>    year sex   name          n   prop first last 
#>   <dbl> <chr> <chr>     <int>  <dbl> <chr> <chr>
#> 1  1880 F     Mary       7065 0.0724 M     y    
#> 2  1880 F     Anna       2604 0.0267 A     a    
#> 3  1880 F     Emma       2003 0.0205 E     a    
#> 4  1880 F     Elizabeth  1939 0.0199 E     h    
#> 5  1880 F     Minnie     1746 0.0179 M     e    
#> 6  1880 F     Margaret   1578 0.0162 M     t    
#> # ℹ 1,924,659 more rows
…
